

command_warroom_3 = {
	slot = 3
	generic = no
	ai = yes
	has_country_shield = yes
	potential = {
		tag = R62
	}
	
	R62_the_war_room = {
		icon = mission_assemble_an_army
		position = 1
		
		trigger = {
			num_of_generals = 3
			employed_advisor = { category = ADM }
			employed_advisor = { category = DIP }
			employed_advisor = { category = MIL }
		}
		
		effect = {
			country_event = { id = the_command.1000 }
			set_country_flag = command_war_room
		}
	}
}


#Campaigns
command_xiadao_2 = {
	slot = 2
	generic = no
	ai = yes
	has_country_shield = yes
	potential = {
		tag = R62
		has_country_flag = command_xiadao_campaign_activated_flag
	}
	
	R62_prepare_the_troops = {
		icon = mission_assemble_an_army
		position = 2
		
		trigger = {
			manpower = 60
			num_of_generals = 3
		}
		
		effect = {
			#!
		}
	}
	
	R62_the_battle_of_shanyutian = {
		icon = mission_assemble_an_army
		position = 3
		required_missions = {
			R62_prepare_the_troops
		}
		
		provinces_to_highlight = {
			province_id = 4618 #Shanyutian
		}
		
		trigger = { #! custom tooltip?
			4618 = { #Shanyutian
				num_of_units_in_province = { amount = 40 }
				num_of_units_in_province = { who = ROOT amount = 10 }
				unit_in_battle = yes
			}
		}
		
		effect = {
			add_country_modifier = {
				name = command_less_shock #! rename and implement
				duration = 30
			}
		}
	}
}

command_xiadao_3 = {
	slot = 3
	generic = no
	ai = yes
	has_country_shield = yes
	potential = {
		tag = R62
		has_country_flag = command_xiadao_campaign_activated_flag
	}
	
	R62_start_the_xiadao_campaign = {
		icon = mission_assemble_an_army
		position = 2
		required_missions = {
			R62_the_war_room
		}
		
		provinces_to_highlight = {
			province_id = 4559 #Xiadao
		}
		
		trigger = {
			4559 = { #Xiadao
				owner = { war_with = ROOT }
			}
		}
		
		effect = {
			#!
		}
	}
	
	R62_dissolve_the_mists = {
		icon = mission_assemble_an_army
		position = 3
		required_missions = {
			R62_start_the_xiadao_campaign
		}
		
		provinces_to_highlight = {
			NOT = { controlled_by = ROOT }
			region = xianjie_region
			fort_level = 1
		}
		
		trigger = {
			calc_true_if = {
				amount = 8
				fort_level = 1
				region = xianjie_region
				controlled_by = ROOT
			}
		}
		
		effect = {
			#!
		}
	}
	
	R62_victor_of_the_xiadao = {
		icon = mission_assemble_an_army
		position = 4
		required_missions = {
			R62_dissolve_the_mists
		}
		
		provinces_to_highlight = {
			region = xianjie_region
			NOT = { country_or_subject_holds = ROOT }
		}
		
		trigger = {
			num_of_provinces_owned_or_owned_by_non_sovereign_subjects_with = {
				region = xianjie_region
				value = 10
			}
		}
		
		effect = {
			#! xiadao campaign finished
			clr_country_flag = command_xiadao_campaign_activated_flag
			set_country_flag = command_xiadao_campaign_completed_flag
		}
	}
}

command_xiadao_4 = {
	slot = 4
	generic = no
	ai = yes
	has_country_shield = yes
	potential = {
		tag = R62
		has_country_flag = command_xiadao_campaign_activated_flag
	}
	
	R62_inspect_the_temple = {
		icon = mission_assemble_an_army
		position = 3
		required_missions = {
			R62_start_the_xiadao_campaign
		}
		
		provinces_to_highlight = {
			province_id = 4559
			NOT = { controlled_by = ROOT }
			NOT = { has_ruler_leader_from = ROOT }
		}
		
		trigger = {
			controls = 4559 #Xiadao
			4559 = { has_ruler_leader_from = ROOT }
		}
		
		effect = {
			random_list = {#event for true randomness?
				33 = {
					increase_ruler_adm_effect = yes
				}
				33 = {
					increase_ruler_dip_effect = yes
				}
				33 = {
					increase_ruler_mil_effect = yes
				}
			}
		}
	}
	
	R62_shattering_the_alliance = {
		icon = mission_assemble_an_army
		position = 4
		required_missions = {
			R62_inspect_the_temple
		}
		
		provinces_to_highlight = {
			province_id = 4559 #Xiadao
			NOT = { country_or_subject_holds = ROOT }
		}
		
		trigger = {
			owns_or_subject_of = 4559 #Xiadao
		}
		
		effect = {
			#!
		}
	}
}

command_shamakhad_3 = {
	slot = 3
	generic = no
	ai = yes
	has_country_shield = yes
	potential = {
		tag = R62
		has_country_flag = command_shamakhad_campaign_activated_flag
	}
	
	R62_start_the_shamakhad_campaign = {
		icon = mission_assemble_an_army
		position = 2
		required_missions = {
			R62_the_war_room
		}
		
		provinces_to_highlight = {
			region = shamakhad_region
			NOT = { country_or_subject_holds = ROOT }
		}
		
		trigger = {
			shamakhad_region = {
				owner = { war_with = ROOT }
			}
		}
		
		effect = {
			#!
		}
	}
	
	R62_seize_the_ancient_cities = {
		icon = mission_assemble_an_army
		position = 3
		required_missions = {
			R62_start_the_shamakhad_campaign
		}
		
		provinces_to_highlight = {
			NOT = {	country_or_subject_holds = ROOT }
			OR = {
				province_id = 4510 #Sarnavan
				province_id = 4509 #Tilathi
				province_id = 4474 #Kamapar
				province_id = 4467 #Parraj
				province_id = 4465 #Khadisrapur
				province_id = 4460 #Sarnihanpur
				province_id = 4397 #Sharaja
			}
		}
		
		trigger = {
			num_of_provinces_owned_or_owned_by_non_sovereign_subjects_with = {
				value = 3
				OR = {
					province_id = 4510 #Sarnavan
					province_id = 4509 #Tilathi
					province_id = 4474 #Kamapar
					province_id = 4467 #Parraj
					province_id = 4465 #Khadisrapur
					province_id = 4460 #Sarnihanpur
					province_id = 4397 #Sharaja
				}
			}
		}
		
		effect = {
			#!
		}
	}
	
	R62_a_final_ruin = {
		icon = mission_assemble_an_army
		position = 4
		required_missions = {
			R62_seize_the_ancient_cities
		}
		
		provinces_to_highlight = {
			NOT = {	country_or_subject_holds = ROOT }
			OR = {
				province_id = 4510 #Sarnavan
				province_id = 4509 #Tilathi
				province_id = 4474 #Kamapar
				province_id = 4467 #Parraj
				province_id = 4465 #Khadisrapur
				province_id = 4460 #Sarnihanpur
				province_id = 4397 #Sharaja
			}
		}
		
		trigger = {
			owns_or_subject_of = 4510 #Sarnavan
			owns_or_subject_of = 4509 #Tilathi
			owns_or_subject_of = 4474 #Kamapar
			owns_or_subject_of = 4467 #Parraj
			owns_or_subject_of = 4465 #Khadisrapur
			owns_or_subject_of = 4460 #Sarnihanpur
			owns_or_subject_of = 4397 #Sharaja
		}
		
		effect = {
			#! Shamakhad campaign finished
			clr_country_flag = command_shamakhad_campaign_activated_flag
			set_country_flag = command_shamakhad_campaign_completed_flag
		}
	}
}

command_shamakhad_4 = {
	slot = 4
	generic = no
	ai = yes
	has_country_shield = yes
	potential = {
		tag = R62
		has_country_flag = command_shamakhad_campaign_activated_flag
	}
	
	R62_the_ramp_of_sarnihanpur = {
		icon = mission_assemble_an_army
		position = 3
		required_missions = {
			R62_start_the_shamakhad_campaign
		}
		
		provinces_to_highlight = {
			province_id = 4460 #Sarnihanpur
		}
		
		trigger = {
			4460 = { #Sarnihanpur
				sieged_by = ROOT
				infantry_in_province = 20
			}
		}
		
		effect = {
			4460 = { change_siege = 5 } #! custom tt + event for owner?
		}
	}
	
	R62_the_spoils_of_war = {
		icon = mission_assemble_an_army
		position = 4
		required_missions = {
			R62_the_ramp_of_sarnihanpur
		}
		
		provinces_to_highlight = {
			province_id = 4460 #Sarnihanpur
		}
		
		trigger = {
			controls = 4460 #Sarnihanpur
		}
		
		effect = {
			4460 = { #Sarnihanpur
				add_base_tax = -2
				add_base_production = -2
				add_base_manpower = -2
				add_devastation = 50
			}
			add_treasury = 250
			add_mil_power = 50
		}
	}
}

command_bianfang_2 = {
	slot = 2
	generic = no
	ai = yes
	has_country_shield = yes
	potential = {
		tag = R62
		has_country_flag = command_bianfang_campaign_activated_flag
	}
	
	R62_construct_a_river_fleet = {
		icon = mission_assemble_an_army
		position = 2
		
		trigger = {
			mil_power = 25
			dip_power = 25
			treasury = 100
		}
		
		effect = {
			add_mil_power = -25
			add_dip_power = -25
			add_treasury = -100
			4826 = { #Bianfang
				add_province_modifier = {
					name = command_besieged_river_fleet
					duration = 1825
				}
			}
		}
	}
	
	R62_move_the_fleet_downriver = {
		icon = mission_assemble_an_army
		position = 3
		required_missions = {
			R62_construct_a_river_fleet
		}
		
		provinces_to_highlight = {
			province_id = 4826 #Bianfang
			NOT = { controlled_by = ROOT }
		}
		
		trigger = {
			controls = 4826 #Bianfang
		}
		
		effect = {
			4842 = { #Jincheng
				add_province_modifier = {
					name = command_besieged_river_fleet
					duration = 1825
				}
			}
		}
	}
	
	R62_the_third_city = {
		icon = mission_assemble_an_army
		position = 4
		required_missions = {
			R62_move_the_fleet_downriver
		}
		
		provinces_to_highlight = {
			province_id = 4842 #Jincheng
			NOT = { controlled_by = ROOT }
		}
		
		trigger = {
			controls = 4842 #Jincheng
		}
		
		effect = {
			4846 = { #Szicheng
				add_province_modifier = {
					name = command_besieged_river_fleet
					duration = 1825
				}
			}
		}
	}
}

command_bianfang_3 = {
	slot = 3
	generic = no
	ai = yes
	has_country_shield = yes
	potential = {
		tag = R62
		has_country_flag = command_bianfang_campaign_activated_flag
	}
	
	R62_start_the_bianfang_campaign = {
		icon = mission_assemble_an_army
		position = 2
		required_missions = {
			R62_the_war_room
		}
		
		provinces_to_highlight = {
			region = upper_yanshen_region
			NOT = { country_or_subject_holds = ROOT }
		}
		
		trigger = {
			upper_yanshen_region = {
				owner = { war_with = ROOT }
			}
		}
		
		effect = {
			#!
		}
	}
	
	R62_by_the_throat = {
		icon = mission_assemble_an_army
		position = 3
		required_missions = {
			R62_start_the_bianfang_campaign
		}
		
		provinces_to_highlight = {
			province_id = 4826 #Bianfang
			NOT = { country_or_subject_holds = ROOT }
		}
		
		trigger = {
			owns_or_subject_of = 4826 #Bianfang
		}
		
		effect = {
			#!
		}
	}
	
	R62_the_superior_drill = {
		icon = mission_assemble_an_army
		position = 4
		required_missions = {
			R62_by_the_throat
		}
		
		provinces_to_highlight = {
			NOT = {country_or_subject_holds = ROOT }
			OR = {
				area = jinqiu_area
				area = jiangszun_area
				area = bianfang_area
				area = bianyuan_area
				area = lamzung_area
				area = tianszi_area
				province_id = 4975 #Jieshik
				province_id = 4852 #Tiaochi
				province_id = 4851 #Caoying
				province_id = 4900 #Tounaapyun
				province_id = 4824 #Jangeoigong
				province_id = 4819 #Dikcha
				province_id = 4892 #Lamcue
			}
		}
		
		trigger = {
			num_of_provinces_owned_or_owned_by_non_sovereign_subjects_with = {#! custom tt?
				value = 12
				OR = {
					area = jinqiu_area
					area = jiangszun_area
					area = bianfang_area
					area = bianyuan_area
					area = lamzung_area
					area = tianszi_area
					province_id = 4975 #Jieshik
					province_id = 4852 #Tiaochi
					province_id = 4851 #Caoying
					province_id = 4900 #Tounaapyun
					province_id = 4824 #Jangeoigong
					province_id = 4819 #Dikcha
					province_id = 4892 #Lamcue
				}
			}
			owns_or_subject_of = 4826 #Bianfang
			owns_or_subject_of = 4842 #Jincheng
			owns_or_subject_of = 4846 #Szicheng
			owns_or_subject_of = 4951 #Lamwun
		}
		
		effect = {
			#! Bianfang campaign finished
			clr_country_flag = command_bianfang_campaign_activated_flag
			set_country_flag = command_bianfang_campaign_completed_flag
		}
	}
}

command_bianfang_4 = {
	slot = 4
	generic = no
	ai = yes
	has_country_shield = yes
	potential = {
		tag = R62
		has_country_flag = command_bianfang_campaign_activated_flag
	}
	
	R62_secure_the_hill_fortification = {
		icon = mission_assemble_an_army
		position = 3
		
		provinces_to_highlight = {
			province_id = 4901 #Hubao
			NOT = { country_or_subject_holds = ROOT }
		}
		
		trigger = {
			owns_or_subject_of = 4901 #Hubao
		}
		
		effect = {
			#!
		}
	}
}

command_ghavaanaj_2 = {
	slot = 2
	generic = no
	ai = yes
	has_country_shield = yes
	potential = {
		tag = R62
		has_country_flag = command_ghavaanaj_campaign_activated_flag
	}
	
	R62_break_the_northern_guard = {
		icon = mission_assemble_an_army
		position = 3
		
		provinces_to_highlight = {
			NOT = { controlled_by = ROOT }
			OR = {
				province_id = 4506
				province_id = 4466
			}
		}
		
		trigger = {
			controls = 4506 #Pordhatti
			controls = 4466 #Tiltaghar
		}
		
		effect = {
			#! -10 Raj cohesion, also event for Raj?
		}
	}
}

command_ghavaanaj_3 = {
	slot = 3
	generic = no
	ai = yes
	has_country_shield = yes
	potential = {
		tag = R62
		has_country_flag = command_ghavaanaj_campaign_activated_flag
	}
	
	R62_start_the_ghavaanaj_campaign = {
		icon = mission_assemble_an_army
		position = 2
		required_missions = {
			R62_the_war_room
		}
		
		provinces_to_highlight = {
			owner = { primary_culture = ghavaanaj }
		}
		
		trigger = {
			any_known_country = {
				primary_culture = ghavaanaj
				war_with = ROOT
			}
		}
		
		effect = {
			#!
		}
	}
	
	R62_dont_get_trampled = {
		icon = mission_assemble_an_army
		position = 3
		required_missions = {
			R62_start_the_ghavaanaj_campaign
		}
		
		provinces_to_highlight = {
			culture = ghavaanaj
			NOT = { country_or_subject_holds = ROOT }
		}
		
		trigger = {
			num_of_provinces_owned_or_owned_by_non_sovereign_subjects_with = {
				value = 5
				culture = ghavaanaj
			}
		}
		
		effect = {
			#!
		}
	}
	
	R62_bulwark_of_elephants = {
		icon = mission_assemble_an_army
		position = 4
		required_missions = {
			R62_dont_get_trampled
		}
		
		provinces_to_highlight = {
			OR = {
				province_id = 4485 #Sharaajaghal
				province_id = 4506 #Pordhatti
				province_id = 4466 #Tiltaghar
				province_id = 4488 #Maharaaja
			}
			NOT = { country_or_subject_holds = ROOT }
		}
		
		trigger = {
			owns_or_subject_of = 4485 #Sharaajaghal
			owns_or_subject_of = 4506 #Pordhatti
			owns_or_subject_of = 4466 #Tiltaghar
			owns_or_subject_of = 4488 #Maharaaja
		}
		
		effect = {
			#! Ghavaanaj campaign finished
			clr_country_flag = command_ghavaanaj_campaign_activated_flag
			set_country_flag = command_ghavaanaj_campaign_completed_flag
		}
	}
}

command_dhujat_2 = {
	slot = 2
	generic = no
	ai = yes
	has_country_shield = yes
	potential = {
		tag = R62
		has_country_flag = command_dhujat_campaign_activated_flag
	}
	
	R62_the_bombardment_of_khiraspid = {
		icon = mission_assemble_an_army
		position = 3
		required_missions = {
			R62_start_the_dhujat_campaign
		}
		
		provinces_to_highlight = {
			province_id = 4409
		}
		
		trigger = {
			4409 = { #Khiraspid
				sieged_by = ROOT
				artillery_in_province = 10
			}
		}
		
		effect = {
			4409 = { change_siege = 5 } #! custom tt + event for owner?
		}
	}
}

command_dhujat_3 = {
	slot = 3
	generic = no
	ai = yes
	has_country_shield = yes
	potential = {
		tag = R62
		has_country_flag = command_dhujat_campaign_activated_flag
	}
	
	R62_start_the_dhujat_campaign = {
		icon = mission_assemble_an_army
		position = 2
		required_missions = {
			R62_the_war_room
		}
		
		provinces_to_highlight = {
			region = dhujat_region
			NOT = { country_or_subject_holds = ROOT }
		}
		
		trigger = {
			dhujat_region = {
				owner = { war_with = ROOT }
			}
		}
		
		effect = {
			#!
		}
	}
	
	R62_control_the_crossings = {
		icon = mission_assemble_an_army
		position = 3
		required_missions = {
			R62_start_the_dhujat_campaign
		}
		
		provinces_to_highlight = {
			OR = {
				province_id = 4492 #Endhuvi
				province_id = 4493 #Keyattordha
				province_id = 4499 #Khirnadhiman
			}
			NOT = { controlled_by = ROOT }
		}
		
		trigger = {
			controls = 4492 #Endhuvi
			controls = 4493 #Keyattordha
			controls = 4499 #Khirnadhiman
		}
		
		effect = {
			#!
		}
	}
	
	R62_down_the_great_river = {
		icon = mission_assemble_an_army
		position = 4
		required_missions = {
			R62_control_the_crossings
		}
		
		provinces_to_highlight = {
			OR = {
				province_id = 4492 #Endhuvi
				province_id = 4493 #Keyattordha
				province_id = 4499 #Khirnadhiman
				province_id = 4409 #Khiraspid
				province_id = 4527 #Tughayasa
				province_id = 4500 #Sarisung
			}
			NOT = { country_or_subject_holds = ROOT }
		}
		
		trigger = {
			owns_or_subject_of = 4492 #Endhuvi
			owns_or_subject_of = 4493 #Keyattordha
			owns_or_subject_of = 4499 #Khirnadhiman
			owns_or_subject_of = 4409 #Khiraspid
			owns_or_subject_of = 4527 #Tughayasa
			owns_or_subject_of = 4500 #Sarisung
		}
		
		effect = {
			#! Dhujat campaign finished
			clr_country_flag = command_dhujat_campaign_activated_flag
			set_country_flag = command_dhujat_campaign_completed_flag
		}
	}
}

command_dhujat_4 = {
	slot = 4
	generic = no
	ai = yes
	has_country_shield = yes
	potential = {
		tag = R62
		has_country_flag = command_dhujat_campaign_activated_flag
	}
	
	R62_the_fate_of_the_oracle = {
		icon = mission_assemble_an_army
		position = 2
		
		provinces_to_highlight = {
			province_id = 4527 #Tughayasa
			NOT = { country_or_subject_holds = ROOT }
		}
		
		trigger = {
			owns_or_subject_of = 4527 #Tughayasa
		}
		
		effect = {
			#event "The Fate of the Oracle"
		}
	}
	
	R62_the_heart_of_haless = {
		icon = mission_assemble_an_army
		position = 3
		
		provinces_to_highlight = {
			province_id = 4500 #Sarisung
			NOT = { country_or_subject_holds = ROOT }
		}
		
		trigger = {
			owns_or_subject_of = 4500 #Sarisung
		}
		
		effect = {
			#!
		}
	}
	
	R62_order_out_of_chaos = {
		icon = mission_assemble_an_army
		position = 4
		required_missions = {
			R62_the_heart_of_haless
		}
		
		provinces_to_highlight = {
			province_id = 4500 #Sarisung
		}
		
		trigger = {
			4500 = { #Sarisung
				infantry_in_province = 20
				has_manpower_building_trigger = yes
				has_fort_building_trigger = yes
			}
			mil_power = 50
		}
		
		effect = {
			add_mil_power = -50 #! remove some of the infantry?
			sarisung_area = {
				limit = { country_or_subject_holds = ROOT }
				add_province_modifier = {
					name = command_sarisung_pacified
					duration = 9125
				}
			}
		}
	}
}

command_bhuvauri_2 = {
	slot = 2
	generic = no
	ai = yes
	has_country_shield = yes
	potential = {
		tag = R62
		has_country_flag = command_bhuvauri_campaign_activated_flag
	}
	
	R62_threaten_mercenary_executions = {
		icon = mission_assemble_an_army
		position = 2
		
		trigger = {
			has_spy_network_in = {
				who = R38 #Bhuvauri
				value = 50
			}
		}
		
		effect = {
			add_spy_network_in = {
				who = R38 #Bhuvauri
				value = -50
			}
			R38 = {
				add_country_modifier = {
					name = command_mercenaries_threatened
					duration = 1825 #! length?
				}
				#event to tell them in case of player
			}
		}
	}
	
	R62_raheni_slavery = {
		icon = mission_assemble_an_army
		position = 3
		required_missions = {
			R62_start_the_bhuvauri_campaign
		}
		
		provinces_to_highlight = {
			province_id = 4551 #Ishudhen
			NOT = { country_or_subject_holds = ROOT }
		}
		
		trigger = {
			owns_or_subject_of = 4551 #Ishudhen
		}
		
		effect = {
			#! start the conversion of your orc subjects into half-orc countries
		}
	}
}

command_bhuvauri_3 = {
	slot = 3
	generic = no
	ai = yes
	has_country_shield = yes
	potential = {
		tag = R62
		has_country_flag = command_bhuvauri_campaign_activated_flag
	}
	
	R62_start_the_bhuvauri_campaign = {
		icon = mission_assemble_an_army
		position = 2
		required_missions = {
			R62_the_war_room
		}
		
		provinces_to_highlight = {
			province_id = 4420 #Sramaya
		}
		
		trigger = {
			4420 = { #Sramaya
				owner = { war_with = ROOT }
			}
		}
		
		effect = {
			#!
		}
	}
	
	R62_the_chained_port = {
		icon = mission_assemble_an_army
		position = 4
		required_missions = {
			R62_start_the_bhuvauri_campaign
		}
		
		provinces_to_highlight = {
			OR = {
				area = kharunyana_estuary_area
				area = dhenbasana_estuary_area
				area = reanthung_area
			}
			NOT = { country_or_subject_holds = ROOT }
		}
		
		trigger = {
			kharunyana_estuary_area = {
				type = all
				country_or_subject_holds = ROOT
			}
			dhenbasana_estuary_area = {
				type = all
				country_or_subject_holds = ROOT
			}
			reanthung_area = {
				type = all
				country_or_subject_holds = ROOT
			}
		}
		
		effect = {
			#! Bhuvauri campaign finished
			clr_country_flag = command_bhuvauri_campaign_activated_flag
			set_country_flag = command_bhuvauri_campaign_completed_flag
		}
	}
}

command_bhuvauri_4 = {
	slot = 4
	generic = no
	ai = yes
	has_country_shield = yes
	potential = {
		tag = R62
		has_country_flag = command_bhuvauri_campaign_activated_flag
	}
	
	R62_the_kharunyana_fleet = {
		icon = mission_assemble_an_army
		position = 2
		
		trigger = {
			mil_power = 25
			dip_power = 25
			treasury = 100
		}
		
		effect = {
			add_mil_power = -25
			add_dip_power = -25
			add_treasury = -100
			4420 = { #Sramaya
				add_province_modifier = {
					name = command_besieged_river_fleet
					duration = 1825
				}
			}
		}
	}
}

command_dhenbasana_2 = {
	slot = 2
	generic = no
	ai = yes
	has_country_shield = yes
	potential = {
		tag = R62
		has_country_flag = command_dhenbasana_campaign_activated_flag
	}
	
	R62_local_command_support_dhenbasana = {
		icon = mission_assemble_an_army
		position = 2
		
		trigger = {
			estate_loyalty = {
				estate = estate_tiger_command
				loyalty = 70
			}
			estate_influence = {
				estate = estate_tiger_command
				influence = 50
			}
		}
		
		effect = {
			#!
		}
	}
}

command_dhenbasana_3 = {
	slot = 3
	generic = no
	ai = yes
	has_country_shield = yes
	potential = {
		tag = R62
		has_country_flag = command_dhenbasana_campaign_activated_flag
	}
	
	R62_start_the_dhenbasana_campaign = {
		icon = mission_assemble_an_army
		position = 2
		required_missions = {
			R62_the_war_room
		}
		
		provinces_to_highlight = {
			province_group = campaign_dhenbasana_provinces #! province group needs loc
			NOT = { country_or_subject_holds = ROOT }
		}
		
		trigger = {
			campaign_dhenbasana_provinces = {
				owner = { war_with = ROOT }
			}
		}
		
		effect = {
			#!
		}
	}
	
	R62_the_southern_cities = {
		icon = mission_assemble_an_army
		position = 3
		required_missions = {
			R62_start_the_dhenbasana_campaign
		}
		
		provinces_to_highlight = {
			province_group = campaign_dhenbasana_provinces
			NOT = { country_or_subject_holds = ROOT }
		}
		
		trigger = {
			num_of_provinces_owned_or_owned_by_non_sovereign_subjects_with = {
				value = 3
				province_group = campaign_dhenbasana_provinces
			}
		}
		
		effect = {
			#!
		}
	}
	
	R62_the_palace_city = {
		icon = mission_assemble_an_army
		position = 4
		required_missions = {
			R62_the_southern_cities
		}
		
		provinces_to_highlight = {
			province_group = campaign_dhenbasana_provinces
			NOT = { country_or_subject_holds = ROOT }
		}
		
		trigger = {
			campaign_dhenbasana_provinces = {
				type = all
				country_or_subject_holds = ROOT
			}
		}
		
		effect = {
			#! Dhenbasana campaign finished
			clr_country_flag = command_dhenbasana_campaign_activated_flag
			set_country_flag = command_dhenbasana_campaign_completed_flag
		}
	}
}

command_dhenbasana_4 = {
	slot = 4
	generic = no
	ai = yes
	has_country_shield = yes
	potential = {
		tag = R62
		has_country_flag = command_dhenbasana_campaign_activated_flag
	}
	
	R62_the_battle_of_durdhinana = {
		icon = mission_assemble_an_army
		position = 3
		required_missions = {
			R62_start_the_dhenbasana_campaign
		}
		
		provinces_to_highlight = {
			province_id = 4410 #Durdhinana
		}
		
		trigger = {#! custom tt
			4410 = { #Durdhinana
				num_of_units_in_province = { amount = 40 }
				num_of_units_in_province = { who = ROOT amount = 10 }
				unit_in_battle = yes
			}
		}
		
		effect = {
			add_country_modifier = {
				name = command_more_fire #! rename and implement
				duration = 30
			}
		}
	}
	
	R62_the_city_of_victory = {
		icon = mission_assemble_an_army
		position = 4
		required_missions = {
			R62_the_battle_of_durdhinana
		}
		
		provinces_to_highlight = {
			province_id = 4401
		}
		
		trigger = {
			4401 = { #Vijiya
				has_ruler_leader_from = ROOT
				controlled_by = ROOT
			}
		}
		
		effect = {
			add_splendor = 200
			add_mil_power = 100
		}
	}
}

command_rakhadesh_2 = {
	slot = 2
	generic = no
	ai = yes
	has_country_shield = yes
	potential = {
		tag = R62
		has_country_flag = command_rakhadesh_campaign_activated_flag
	}
	
	R62_prepare_the_front_rakhadesh = {
		icon = mission_assemble_an_army
		position = 2
		
		provinces_to_highlight = {
			region = rakhadesh_region
		}
		
		trigger = { #! custom tt?
			rakhadesh_region = {
				any_neighbor_province = {
					owner = {
						is_subject_of = ROOT
						is_subject_of_type = slave_state
					}
				}
			}
		}
		
		effect = {
			#!
		}
	}
	
	R62_the_dhenbasana_rapids = {
		icon = mission_assemble_an_army
		position = 3
		required_missions = {
			R62_start_the_rakhadesh_campaign
		}
		
		provinces_to_highlight = {
			OR = {
				province_id = 4438 #Dhurasidheni
				province_id = 4435 #Rayavhashapal
			}
			NOT = { country_or_subject_holds = ROOT }
		}
		
		trigger = {
			owns_or_subject_of = 4438 #Dhurasidheni
			owns_or_subject_of = 4435 #Rayavhashapal
		}
		
		effect = {
			#!
		}
	}
	
	R62_visit_the_hall_of_endless_debate = {
		icon = mission_assemble_an_army
		position = 4
		required_missions = {
			R62_the_dhenbasana_rapids
		}
		
		provinces_to_highlight = {
			province_id = 4435 #Rayavhashapal
		}
		
		trigger = {
			4435 = { #Rayavhashapal
				has_ruler_leader_from = ROOT
				controlled_by = ROOT
			}
		}
		
		effect = {
			random_list = {
				33 = {
					increase_ruler_adm_effect = yes
				}
				33 = {
					increase_ruler_dip_effect = yes
				}
				33 = {
					increase_ruler_mil_effect = yes
				}
			}
			#! reset teaching
		}
	}
}

command_rakhadesh_3 = {
	slot = 3
	generic = no
	ai = yes
	has_country_shield = yes
	potential = {
		tag = R62
		has_country_flag = command_rakhadesh_campaign_activated_flag
	}
	
	R62_start_the_rakhadesh_campaign = {
		icon = mission_assemble_an_army
		position = 2
		required_missions = {
			R62_the_war_room
		}
		
		provinces_to_highlight = {
			region = rakhadesh_region
			NOT = { country_or_subject_holds = ROOT }
		}
		
		trigger = {
			rakhadesh_region = {
				owner = { war_with = ROOT }
			}
		}
		
		effect = {
			#!
		}
	}
	
	R62_the_backwater_campaign = {
		icon = mission_assemble_an_army
		position = 4
		required_missions = {
			R62_the_dhenbasana_rapids
			R62_the_narajandi_rapids
		}
		
		provinces_to_highlight = {
			region = rakhadesh_region
			NOT = { country_or_subject_holds = ROOT }
		}
		
		trigger = {
			num_of_provinces_owned_or_owned_by_non_sovereign_subjects_with = {
				value = 12
				region = rakhadesh_region
			}
			owns_or_subject_of = 4450 #Bubhagama
			owns_or_subject_of = 4435 #Rayavhashapal
			owns_or_subject_of = 4438 #Dhurasidheni
			owns_or_subject_of = 4446 #Dakhilamvi
		}
		
		effect = {
			#! Rakhadesh campaign finished
			clr_country_flag = command_rakhadesh_campaign_activated_flag
			set_country_flag = command_rakhadesh_campaign_completed_flag
		}
	}
}

command_rakhadesh_4 = {
	slot = 4
	generic = no
	ai = yes
	has_country_shield = yes
	potential = {
		tag = R62
		has_country_flag = command_rakhadesh_campaign_activated_flag
	}
	
	R62_the_narajandi_rapids = {
		icon = mission_assemble_an_army
		position = 3
		required_missions = {
			R62_start_the_rakhadesh_campaign
		}
		
		provinces_to_highlight = {
			OR = {
				province_id = 4450 #Bubhagama
				province_id = 4446 #Dakhilamvi
			}
			NOT = { country_or_subject_holds = ROOT }
		}
		
		trigger = {
			owns_or_subject_of = 4450 #Bubhagama
			owns_or_subject_of = 4446 #Dakhilamvi
		}
		
		effect = {
			#!
		}
	}
	
	R62_the_root_gate = {
		icon = mission_assemble_an_army
		position = 4
		required_missions = {
			R62_the_narajandi_rapids
		}
		
		trigger = {
			owns_or_subject_of = 4446 #Dakhilamvi
			4446 = {
				has_fort_building_trigger = yes
			}
		}
		
		effect = {
			4446 = {
				add_province_modifier = {
					name = command_watcher_at_the_roots #! effect?
					duration = 18250
				}
			}
		}
	}
}

command_rahen_coast_3 = {
	slot = 3
	generic = no
	ai = yes
	has_country_shield = yes
	potential = {
		tag = R62
		has_country_flag = command_rahen_coast_campaign_activated_flag
	}
	
	R62_start_the_rahen_coast_campaign = {
		icon = mission_assemble_an_army
		position = 2
		required_missions = {
			R62_the_war_room
		}
		
		provinces_to_highlight = {
			province_group = campaign_rahen_coast_provinces
			NOT = { country_or_subject_holds = ROOT }
		}
		
		trigger = {
			campaign_rahen_coast_provinces = {
				owner = { war_with = ROOT }
			}
		}
		
		effect = {
			#!
		}
	}
	
	R62_an_unusual_frontier = {
		icon = mission_assemble_an_army
		position = 3
		required_missions = {
			R62_start_the_rahen_coast_campaign
		}
		
		provinces_to_highlight = {
			province_group = campaign_rahen_coast_provinces
			NOT = { country_or_subject_holds = ROOT }
		}
		
		trigger = {
			num_of_provinces_owned_or_owned_by_non_sovereign_subjects_with = {
				value = 2
				province_group = campaign_rahen_coast_provinces
			}
		}
		
		effect = {
			#!
		}
	}
	
	R62_ports_of_rahen = {
		icon = mission_assemble_an_army
		position = 4
		required_missions = {
			R62_an_unusual_frontier
		}
		
		provinces_to_highlight = {
			province_group = campaign_rahen_coast_provinces
			NOT = { country_or_subject_holds = ROOT }
		}
		
		trigger = {
			campaign_rahen_coast_provinces = {
				type = all
				country_or_subject_holds = ROOT
			}
		}
		
		effect = {
			#! Rahen Coast campaign finished
			clr_country_flag = command_rahen_coast_campaign_activated_flag
			set_country_flag = command_rahen_coast_campaign_completed_flag
		}
	}
}

command_rahen_coast_4 = {
	slot = 4
	generic = no
	ai = yes
	has_country_shield = yes
	potential = {
		tag = R62
		has_country_flag = command_rahen_coast_campaign_activated_flag
	}
	
	R62_enlist_naval_experts = {
		icon = mission_assemble_an_army
		position = 2
		
		trigger = {
			estate_loyalty = {
				estate = estate_gerunanin
				loyalty = 70
			}
			estate_influence = {
				estate = estate_gerunanin
				influence = 50
			}
			any_owned_province = { has_port = yes }
		}
		
		effect = {
			random_owned_province = {
				limit = { has_port = yes }
				add_unit_construction = {
					type = heavy_ship
					amount = 10
					speed = 0.1
					cost = 0.5
				}
			}
			create_admiral = { tradition = 40 }
		}
	}
	
	R62_dominance_at_sea = {
		icon = mission_assemble_an_army
		position = 3
		required_missions = {
			R62_start_the_rahen_coast_campaign
			R62_enlist_naval_experts
		}
		
		trigger = {
			rahen_coast_region = {
				owner = { 
					war_with = ROOT 
					any_owned_province = { has_port = yes }
					NOT = { navy_size = ROOT }
				}
			}
		}
		
		effect = {
			add_country_modifier = {
				name = command_more_blockade #! rename and implement +1 blockade impact
				duration = 3650
			}
		}
	}
	
	R62_the_great_assault = {
		icon = mission_assemble_an_army
		position = 4
		required_missions = {
			R62_dominance_at_sea
		}
		
		provinces_to_highlight = {
			province_id = 4367 #Sarkhashabid
		}
		
		trigger = {
			4367 = { #Sarkhashabid
				sieged_by = ROOT
				is_blockaded = yes
			}
		}
		
		effect = {
			4367 = { change_siege = 5 } #! custom tt + event for owner?
		}
	}
}

command_telebei_2 = {
	slot = 2
	generic = no
	ai = yes
	has_country_shield = yes
	potential = {
		tag = R62
		has_country_flag = command_telebei_campaign_activated_flag
	}
	
	R62_the_kharunyana_fords = {
		icon = mission_assemble_an_army
		position = 3
		required_missions = {
			R62_start_the_telebei_campaign
		}
		
		provinces_to_highlight = {
			OR = {
				province_id = 4600 #Semphrerong
				province_id = 4396 #Phangban
			}
			NOT = { country_or_subject_holds = ROOT }
		}
		
		trigger = {
			owns_or_subject_of = 4600 #Semphrerong
			owns_or_subject_of = 4396 #Phangban
		}
		
		effect = {
			#!
		}
	}
}

command_telebei_3 = {
	slot = 3
	generic = no
	ai = yes
	has_country_shield = yes
	potential = {
		tag = R62
		has_country_flag = command_telebei_campaign_activated_flag
	}
	
	R62_start_the_telebei_campaign = {
		icon = mission_assemble_an_army
		position = 2
		required_missions = {
			R62_the_war_room
		}
		
		provinces_to_highlight = {
			province_group = campaign_telebei_provinces
			NOT = { country_or_subject_holds = ROOT }
		}
		
		trigger = {
			campaign_telebei_provinces = {
				owner = { war_with = ROOT }
			}
		}
		
		effect = {
			#!
		}
	}
	
	R62_spirit_bastions = {
		icon = mission_assemble_an_army
		position = 3
		required_missions = {
			R62_start_the_telebei_campaign
		}
		
		provinces_to_highlight = {
			OR = {
				province_id = 4561 #Li Btei
				province_id = 4604 #Khung Btei
				province_id = 4595 #Ket Btei
			}
			NOT = { country_or_subject_holds = ROOT }
		}
		
		trigger = {
			owns_or_subject_of = 4561 #Li Btei
			owns_or_subject_of = 4604 #Khung Btei
			owns_or_subject_of = 4595 #Ket Btei
		}
		
		effect = {
			#!
		}
	}
	
	R62_the_bom_empire = {
		icon = mission_assemble_an_army
		position = 4
		required_missions = {
			R62_the_kharunyana_fords
			R62_the_telebei_forts
		}
		
		provinces_to_highlight = {
			OR = {
				province_id = 4600 #Semphrerong
				province_id = 4396 #Phangban
				province_id = 4565 #Bim Lau
				province_id = 4941 #Lapnam Amrik
				province_id = 4560 #Bieng Phang
			}
			NOT = { country_or_subject_holds = ROOT }
		}
		
		trigger = {
			owns_or_subject_of = 4600 #Semphrerong
			owns_or_subject_of = 4396 #Phangban
			owns_or_subject_of = 4565 #Bim Lau
			owns_or_subject_of = 4941 #Lapnam Amrik
			owns_or_subject_of = 4560 #Bieng Phang
		}
		
		effect = {
			#! Telebei campaign finished
			clr_country_flag = command_telebei_campaign_activated_flag
			set_country_flag = command_telebei_campaign_completed_flag
		}
	}
}

command_telebei_4 = {
	slot = 4
	generic = no
	ai = yes
	has_country_shield = yes
	potential = {
		tag = R62
		has_country_flag = command_telebei_campaign_activated_flag
	}
	
	R62_the_telebei_forts = {
		icon = mission_assemble_an_army
		position = 3
		required_missions = {
			R62_start_the_telebei_campaign
		}
		
		provinces_to_highlight = {
			OR = {
				province_id = 4565 #Bim Lau
				province_id = 4941 #Lapnam Amrik
			}
			NOT = { country_or_subject_holds = ROOT }
		}
		
		trigger = {
			owns_or_subject_of = 4565 #Bim Lau
			owns_or_subject_of = 4941 #Lapnam Amrik
		}
		
		effect = {
			#!
		}
	}
	
	R62_no_harbouring_deserters = {
		icon = mission_assemble_an_army
		position = 4
		required_missions = {
			R62_the_telebei_forts
		}
		
		provinces_to_highlight = {
			province_id = 4941 #Lapnam Amrik
		}
		
		trigger = {
			controls = 4941 #Lapnam Amrik
		}
		
		effect = {
			4460 = { #Lapnam Amrik
				add_base_tax = -2
				add_base_production = -2
				add_base_manpower = -2
				add_devastation = 50
			}
			add_treasury = 250
			add_mil_power = 50
			#! ?
		}
	}
}

command_hukai_2 = {
	slot = 2
	generic = no
	ai = yes
	has_country_shield = yes
	potential = {
		tag = R62
		has_country_flag = command_hukai_campaign_activated_flag
	}
	
	R62_geometric_warfare = {
		icon = mission_assemble_an_army
		position = 2
		
		trigger = {
			natural_scientist = 2
			has_leader_with = {
				general = yes
				siege = 3
			}
		}
		
		effect = {
			add_country_modifier = {
				name = command_more_siege #! rename and implement
				duration = 3650
			}
		}
	}
	
	R62_bom_climbers_employed = {
		icon = mission_assemble_an_army
		position = 3
		required_missions = {
			R62_start_the_hukai_campaign
		}
		
		provinces_to_highlight = {
			province_id = 4580 #Khabtei Teleni
		}
		
		trigger = {
			4580 = { #Khabtei Teleni
				sieged_by = ROOT
				infantry_in_province = 20
			}
		}
		
		effect = {
			4580 = { change_siege = 5 } #! custom tt + event for owner?
		}
	}
}

command_hukai_3 = {
	slot = 3
	generic = no
	ai = yes
	has_country_shield = yes
	potential = {
		tag = R62
		has_country_flag = command_hukai_campaign_activated_flag
	}
	
	R62_start_the_hukai_campaign = {
		icon = mission_assemble_an_army
		position = 2
		required_missions = {
			R62_the_war_room
		}
		
		provinces_to_highlight = {
			province_group = campaign_hukai_provinces
			NOT = { country_or_subject_holds = ROOT }
		}
		
		trigger = {
			campaign_hukai_provinces = {
				owner = { war_with = ROOT }
			}
		}
		
		effect = {
			#!
		}
	}
	
	R62_12_sides_shattered = {
		icon = mission_assemble_an_army
		position = 3
		required_missions = {
			R62_start_the_hukai_campaign
		}
		
		provinces_to_highlight = {
			province_id = 4580 #Khabtei Teleni
		}
		
		trigger = {
			owns_or_subject_of = 4580 #Khabtei Teleni
		}
		
		effect = {
			#!
		}
	}
	
	R62_the_fortress_cities = {
		icon = mission_assemble_an_army
		position = 4
		required_missions = {
			R62_12_sides_shattered
		}
		
		provinces_to_highlight = {
			province_group = campaign_hukai_provinces
			NOT = { country_or_subject_holds = ROOT }
		}
		
		trigger = {
			num_of_provinces_owned_or_owned_by_non_sovereign_subjects_with = {
				value = 10
				province_group = campaign_hukai_provinces
			}
			owns_or_subject_of = 4570 #Prukakhin
			owns_or_subject_of = 4580 #Khabtei Teleni
		}
		
		effect = {
			#! Hukai campaign finished
			clr_country_flag = command_hukai_campaign_activated_flag
			set_country_flag = command_hukai_campaign_completed_flag
		}
	}
}

command_sikai_2 = {
	slot = 2
	generic = no
	ai = yes
	has_country_shield = yes
	potential = {
		tag = R62
		has_country_flag = command_sikai_campaign_activated_flag
	}
	
	R62_no_hold_left_untouched = {
		icon = mission_assemble_an_army
		position = 3
		required_missions = {
			R62_start_the_sikai_campaign
		}
		
		provinces_to_highlight = {
			province_id = 5424 #Verkal Ozovar
		}
		
		trigger = {
			controls = 5424 #Verkal Ozovar
		}
		
		effect = {
			5424 = { #Verkal Ozovar
				add_base_tax = -2
				add_base_production = -2
				add_base_manpower = -2
				add_devastation = 50
			}
			add_treasury = 250
			add_mil_power = 50
		}
	}
}

command_sikai_3 = {
	slot = 3
	generic = no
	ai = yes
	has_country_shield = yes
	potential = {
		tag = R62
		has_country_flag = command_sikai_campaign_activated_flag
	}
	
	R62_start_the_sikai_campaign = {
		icon = mission_assemble_an_army
		position = 2
		required_missions = {
			R62_the_war_room
		}
		
		provinces_to_highlight = {
			province_group = campaign_sikai_provinces
			NOT = { country_or_subject_holds = ROOT }
		}
		
		trigger = {
			campaign_sikai_provinces = {
				owner = { war_with = ROOT }
			}
		}
		
		effect = {
			#!
		}
	}
	
	R62_the_greatest_of_townships = {
		icon = mission_assemble_an_army
		position = 3
		required_missions = {
			R62_start_the_sikai_campaign
		}
		
		provinces_to_highlight = {
			province_id = 4789 #Azkare
			NOT = { country_or_subject_holds = ROOT }
		}
		
		trigger = {
			owns_or_subject_of = 4789 #Azkare
		}
		
		effect = {
			#!
		}
	}
	
	R62_the_base_of_the_phokai = {
		icon = mission_assemble_an_army
		position = 4
		required_missions = {
			R62_the_greatest_of_townships
		}
		
		trigger = {
			num_of_provinces_owned_or_owned_by_non_sovereign_subjects_with = {
				value = 12
				province_group = campaign_sikai_provinces
			}
		}
		
		effect = {
			#! Sikai campaign finished
			clr_country_flag = command_sikai_campaign_activated_flag
			set_country_flag = command_sikai_campaign_completed_flag
		}
	}
}

command_sikai_4 = {
	slot = 4
	generic = no
	ai = yes
	has_country_shield = yes
	potential = {
		tag = R62
		has_country_flag = command_sikai_campaign_activated_flag
	}
	
	R62_local_command_support_sikai = {
		icon = mission_assemble_an_army
		position = 2
		
		trigger = {
			estate_loyalty = {
				estate = estate_elephant_command
				loyalty = 70
			}
			estate_influence = {
				estate = estate_elephant_command
				influence = 50
			}
		}
		
		effect = {
			define_general = {
				shock = 3
				fire = 5
				manuever = 1
				siege = 3
				female = no
				name = "Surushin Elephantborn"
			}
		}
	}
}

command_baihon_xinh_2 = {
	slot = 2
	generic = no
	ai = yes
	has_country_shield = yes
	potential = {
		tag = R62
		has_country_flag = command_baihon_xinh_activated_flag
	}
}

command_baihon_xinh_3 = {
	slot = 3
	generic = no
	ai = yes
	has_country_shield = yes
	potential = {
		tag = R62
		has_country_flag = command_baihon_xinh_activated_flag
	}
	
	R62_start_the_baihon_xinh_campaign = {
		icon = mission_assemble_an_army
		position = 2
		required_missions = {
			R62_the_war_room
		}
		
		trigger = {
			
		}
		
		effect = {
			
		}
	}
	
	R62_baihon_xinh_middle = {
		icon = mission_assemble_an_army
		position = 3
		required_missions = {
			R62_start_the_baihon_xinh_campaign
		}
		
		trigger = {
			
		}
		
		effect = {
			
		}
	}
	
	R62_the_kai_empire = {
		icon = mission_assemble_an_army
		position = 4
		required_missions = {
			R62_baihon_xinh_middle
		}
		
		trigger = {
			
		}
		
		effect = {
			
		}
	}
}

command_baihon_xinh_4 = {
	slot = 4
	generic = no
	ai = yes
	has_country_shield = yes
	potential = {
		tag = R62
		has_country_flag = command_baihon_xinh_activated_flag
	}
	
	R62_the_battle_of_ma_hoang = {
		icon = mission_assemble_an_army
		position = 3
		required_missions = {
			R62_start_the_baihon_xinh_campaign
		}
		
		trigger = {#! custom tt
			4764 = { #Ma Hoang
				num_of_units_in_province = { amount = 40 }
				num_of_units_in_province = { who = ROOT amount = 10 }
				unit_in_battle = yes
			}
		}
		
		effect = {
			add_country_modifier = {
				name = command_more_shock #! rename and implement
				duration = 30
			}
		}
	}
}

command_thidinkai_2 = {
	slot = 2
	generic = no
	ai = yes
	has_country_shield = yes
	potential = {
		tag = R62
		has_country_flag = command_thidinkai_activated_flag
	}
}

command_thidinkai_3 = {
	slot = 3
	generic = no
	ai = yes
	has_country_shield = yes
	potential = {
		tag = R62
		has_country_flag = command_thidinkai_activated_flag
	}
	
	R62_start_the_thidinkai_campaign = {
		icon = mission_assemble_an_army
		position = 2
		required_missions = {
			R62_the_war_room
		}
		
		trigger = {
			
		}
		
		effect = {
			
		}
	}
	
	R62_thidinkai_campaign_middle = {
		icon = mission_assemble_an_army
		position = 3
		required_missions = {
			R62_start_the_thidinkai_campaign
		}
		
		trigger = {
			
		}
		
		effect = {
			
		}
	}
	
	R62_thidinkai_campaign_finished = {
		icon = mission_assemble_an_army
		position = 4
		required_missions = {
			R62_thidinkai_campaign_middle
		}
		
		trigger = {
			
		}
		
		effect = {
			
		}
	}
}

command_thidinkai_4 = {
	slot = 4
	generic = no
	ai = yes
	has_country_shield = yes
	potential = {
		tag = R62
		has_country_flag = command_thidinkai_activated_flag
	}
}

command_lupulan_2 = {
	slot = 2
	generic = no
	ai = yes
	has_country_shield = yes
	potential = {
		tag = R62
		has_country_flag = command_lupulan_activated_flag
	}
	
	R62_train_jungle_fighters = {
		icon = mission_assemble_an_army
		position = 2
		
		trigger = {
			lupulan_rainforest_region = {
				any_neighbor_province = {
					owner = {
						is_subject_of = ROOT
						is_subject_of_type = slave_state
					}
				}
			}
		}
		
		effect = {
			random_subject_country = {
				limit = {
					is_subject_of_type = slave_state
					any_owned_province = {
						any_neighbor_province = {
							region = lupulan_rainforest_region
						}
					}
				}
				add_country_modifier = {
					name = command_jungle_fighters
					duration = 3650
				}
			}
		}
	}
}

command_lupulan_3 = {
	slot = 3
	generic = no
	ai = yes
	has_country_shield = yes
	potential = {
		tag = R62
		has_country_flag = command_lupulan_activated_flag
	}
	
	R62_start_the_lupulan_campaign = {
		icon = mission_assemble_an_army
		position = 2
		required_missions = {
			R62_the_war_room
		}
		
		trigger = {
			
		}
		
		effect = {
			
		}
	}
	
	R62_lupulan_campaign_middle = {
		icon = mission_assemble_an_army
		position = 3
		required_missions = {
			R62_start_the_lupulan_campaign
		}
		
		trigger = {
			
		}
		
		effect = {
			
		}
	}
	
	R62_lupulan_campaign_finished = {
		icon = mission_assemble_an_army
		position = 4
		required_missions = {
			R62_lupulan_campaign_middle
		}
		
		trigger = {
			
		}
		
		effect = {
			
		}
	}
}

command_lupulan_4 = {
	slot = 4
	generic = no
	ai = yes
	has_country_shield = yes
	potential = {
		tag = R62
		has_country_flag = command_lupulan_activated_flag
	}
}

command_arawkelin_2 = {
	slot = 2
	generic = no
	ai = yes
	has_country_shield = yes
	potential = {
		tag = R62
		has_country_flag = command_arawkelin_activated_flag
	}
}

command_arawkelin_3 = {
	slot = 3
	generic = no
	ai = yes
	has_country_shield = yes
	potential = {
		tag = R62
		has_country_flag = command_arawkelin_activated_flag
	}
	
	R62_start_the_arawkelin_campaign = {
		icon = mission_assemble_an_army
		position = 2
		required_missions = {
			R62_the_war_room
		}
		
		trigger = {
			
		}
		
		effect = {
			
		}
	}
	
	R62_arawkelin_campaign_middle = {
		icon = mission_assemble_an_army
		position = 3
		required_missions = {
			R62_start_the_arawkelin_campaign
		}
		
		trigger = {
			
		}
		
		effect = {
			
		}
	}
	
	R62_arawkelin_campaign_finished = {
		icon = mission_assemble_an_army
		position = 4
		required_missions = {
			R62_arawkelin_campaign_middle
		}
		
		trigger = {
			
		}
		
		effect = {
			
		}
	}
}

command_arawkelin_4 = {
	slot = 4
	generic = no
	ai = yes
	has_country_shield = yes
	potential = {
		tag = R62
		has_country_flag = command_arawkelin_activated_flag
	}
}

command_yanszin_2 = {
	slot = 2
	generic = no
	ai = yes
	has_country_shield = yes
	potential = {
		tag = R62
		has_country_flag = command_yanszin_activated_flag
	}
	
	R62_the_battle_of_the_great_lake = {
		icon = mission_assemble_an_army
		position = 3
		required_missions = {
			R62_start_the_yanszin_campaign
		}
		
		provinces_to_highlight = {
			province_id = 4854 #Hudi
		}
		
		trigger = {
			4854 = { #Hudi
				num_of_units_in_province = { amount = 20 }
				num_of_units_in_province = { who = ROOT amount = 5 }
				unit_in_battle = yes
			}
		}
		
		effect = {
			add_country_modifier = {
				name = command_more_shock #! rename and implement
				duration = 30
			}
		}
	}
}

command_yanszin_3 = {
	slot = 3
	generic = no
	ai = yes
	has_country_shield = yes
	potential = {
		tag = R62
		has_country_flag = command_yanszin_activated_flag
	}
	
	R62_start_the_yanszin_campaign = {
		icon = mission_assemble_an_army
		position = 2
		required_missions = {
			R62_the_war_room
		}
		
		provinces_to_highlight = {
			province_group = campaign_yanszin_provinces
		}
		
		trigger = {
			campaign_yanszin_provinces = {
				owner = { war_with = ROOT }
			}
		}
		
		effect = {
			#!
		}
	}
	
	R62_league_no_longer = {
		icon = mission_assemble_an_army
		position = 3
		required_missions = {
			R62_start_the_yanszin_campaign
		}
		
		provinces_to_highlight = {
			OR = {
				province_id = 4859 #Yanzhong
				province_id = 4853 #Anjiang
				province_id = 4861 #Yangcheng
			}
			NOT = { country_or_subject_holds = ROOT }
		}
		
		trigger = {
			owns_or_subject_of = 4859 #Yanzhong
			owns_or_subject_of = 4853 #Anjiang
			owns_or_subject_of = 4861 #Yangcheng 4867 4930
		}
		
		effect = {
			#!
		}
	}
	
	R62_the_middle_yan = {
		icon = mission_assemble_an_army
		position = 4
		required_missions = {
			R62_league_no_longer
		}
		
		provinces_to_highlight = {
			province_group = campaign_yanszin_provinces
			NOT = { country_or_subject_holds = ROOT }
		}
		
		trigger = {
			campaign_yanszin_provinces = {
				type = all
				country_or_subject_holds = ROOT
			}
		}
		
		effect = {
			#! Yanszin campaign finished
			clr_country_flag = command_yanszin_campaign_activated_flag
			set_country_flag = command_yanszin_campaign_completed_flag
		}
	}
}

command_yanszin_4 = {
	slot = 4
	generic = no
	ai = yes
	has_country_shield = yes
	potential = {
		tag = R62
		has_country_flag = command_yanszin_activated_flag
	}
	
	R62_prepare_the_front_yanszin = {
		icon = mission_assemble_an_army
		position = 2
		
		provinces_to_highlight = {
			OR = {
				area = tianszi_area
				area = jiangszun_area
				area = jinqiu_area
			}
		}
		
		trigger = {
			any_subject_country = {
				is_subject_of_type = slave_state
				any_owned_province = {
					OR = {
						area = tianszi_area
						area = jiangszun_area
						area = jinqiu_area
					}
				}
			}
		}
		
		effect = {
			campaign_yanszin_provinces = {
				owner = {
					add_country_modifier = {
						name = command_debuff #! rename?
						duration = 1825
					}
				}
			}
		}
	}
	
	R62_expert_mathematicians = {
		icon = mission_assemble_an_army
		position = 4
		required_missions = {
			R62_league_no_longer
		}
		
		provinces_to_highlight = {
			province_id = 4859 #Yanzhong
		}
		
		trigger = {
			owns_or_subject_of = 4859 #Yanzhong
		}
		
		effect = {
			add_country_modifier = {
				name = command_more_artillery #! rename and implement
				duration = 7300
			}
		}
	}
}

command_xianjie_2 = {
	slot = 2
	generic = no
	ai = yes
	has_country_shield = yes
	potential = {
		tag = R62
		has_country_flag = command_xianjie_activated_flag
	}
	
	R62_study_the_blade = {
		icon = mission_assemble_an_army
		position = 3
		required_missions = {
			R62_start_the_xianjie_campaign
		}
		
		provinces_to_highlight = {
			province_id = 4811 #Jianxusi
		}
		
		trigger = {
			owns = 4811
			4811 = {
				has_ruler_leader_from = ROOT
			}
		}
		
		effect = {
			add_country_modifier = {
				name = command_study_blade
				duration = 1825
			}
		}
	}
	
	R62_secure_teimarji_supply = {
		icon = mission_assemble_an_army
		position = 4
		required_missions = {
			R62_study_the_blade
		}
		
		provinces_to_highlight = {
			province_id = 4811 #Jianxusi
		}
		
		trigger = {
			owns = 4811
			4811 = {
				NOT = { local_autonomy = 25 }
			}
			adm_power = 50
			government_reform_progress = 25
		}
		
		effect = {
			add_adm_power = -50
			change_government_reform_progress = -25
			if = {
				limit = {
					4811 = { has_courthouse_building_trigger = no }
				}
				4811 = {
					add_building_construction = {
						building = courthouse
						speed = 0.5
						cost = 0.5
					}
				}
			}
			4811 = {
				add_province_modifier = {
					name = command_secure_teimarji_supply
					duration = 7300
				}
			}
		}
	}
}

command_xianjie_3 = {
	slot = 3
	generic = no
	ai = yes
	has_country_shield = yes
	potential = {
		tag = R62
		has_country_flag = command_xianjie_activated_flag
	}
	
	R62_start_the_xianjie_campaign = {
		icon = mission_assemble_an_army
		position = 2
		required_missions = {
			R62_the_war_room
		}
		
		provinces_to_highlight = {
			province_group = campaign_xianjie_provinces
			NOT = { country_or_subject_holds = ROOT }
		}
		
		trigger = {
			campaign_xianjie_provinces = {
				owner = { war_with = ROOT }
			}
		}
		
		effect = {
			
		}
	}
	
	R62_through_misty_hills = {
		icon = mission_assemble_an_army
		position = 3
		required_missions = {
			R62_start_the_xianjie_campaign
		}
		
		provinces_to_highlight = {
			province_group = campaign_xianjie_provinces
			NOT = { country_or_subject_holds = ROOT }
		}
		
		trigger = {
			num_of_provinces_owned_or_owned_by_non_sovereign_subjects_with = {
				province_group = campaign_xianjie_provinces
				value = 3
			}
		}
		
		effect = {
			
		}
	}
	
	R62_xianjie_campaign_finished = {
		icon = mission_assemble_an_army
		position = 4
		required_missions = {
			R62_through_misty_hills
		}
		
		provinces_to_highlight = {
			province_group = campaign_xianjie_provinces
			NOT = { country_or_subject_holds = ROOT }
		}
		
		trigger = {
			campaign_xianjie_provinces = {
				type = all
				country_or_subject_holds = ROOT
			}
		}
		
		effect = {
			#! Xianjie campaign finished
			clr_country_flag = command_xianjie_campaign_activated_flag
			set_country_flag = command_xianjie_campaign_completed_flag
		}
	}
}

command_xianjie_4 = {
	slot = 4
	generic = no
	ai = yes
	has_country_shield = yes
	potential = {
		tag = R62
		has_country_flag = command_xianjie_activated_flag
	}
	
	R62_the_strongest = {
		icon = mission_assemble_an_army
		position = 2
		
		provinces_to_highlight = {
			province_id = 4559 #Xiadao
		}
		
		trigger = {
			owns_core_province = 4559 #Xiadao
			4559 = {
				NOT = { local_autonomy = 50 }
			}
			calc_true_if = {
				any_known_country = {
					OR = {
						has_reform = indep_xiaken
						has_reform = xiaken
					}
					has_opinion_modifier = {
						who = ROOT
						modifier = scornfully_insulted
					}
				}
				amount = 2
			}
		}
		
		effect = {
			custom_tooltip = command_the_strongest_tt
			tooltip = {
				random_known_country = {
					limit = {
						OR = {
							has_reform = indep_xiaken
							has_reform = xiaken
						}
						NOT = { is_subject_of = ROOT }
					}
					add_country_modifier = {
						name = command_intimidated
						duration = 3650
					}
				}
			}
			hidden_effect = {
				every_known_country = {
					limit = {
						OR = {
							has_reform = indep_xiaken
							has_reform = xiaken
						}
						NOT = { is_subject_of = ROOT }
					}
					add_country_modifier = {
						name = command_intimidated
						duration = 3650
					}#event?
				}
			}
		}
	}
	
	R62_a_broken_nest = {
		icon = mission_assemble_an_army
		position = 3
		required_missions = {
			R62_start_the_xianjie_campaign
		}
		
		provinces_to_highlight = {
			province_id = 4614 #Yinchao
		}
		
		trigger = {
			controls = 4614 #Yinchao
		}
		
		effect = {
			4614 = { #Yinchao
				if = {
					limit = { has_province_modifier = harpy_roost }
					custom_tooltip = command_destroy_roost_tt
					hidden_effect = { remove_province_triggered_modifier = harpy_roost }
				}
				add_devastation = 50
				add_base_tax = -1
				add_base_production = -1
				add_base_manpower = -1
			}
			add_treasury = 250
			add_prestige = 10
		}
	}
}

command_zyujyut_2 = {
	slot = 2
	generic = no
	ai = yes
	has_country_shield = yes
	potential = {
		tag = R62
		has_country_flag = command_zyujyut_activated_flag
	}
	
	R62_ambition_and_talent = {
		icon = mission_assemble_an_army
		position = 4
		required_missions = {
			R62_that_was_just_the_beginning
		}
		
		trigger = {
			mil_power = 50
		}
		
		effect = {
			define_general = {
				shock = 4
				fire = 6
				manuever = 2
				siege = 1
				female = no
				name = "Keziniku \"The Dragon\" Boarborn"
			}
		}
	}
}

command_zyujyut_3 = {
	slot = 3
	generic = no
	ai = yes
	has_country_shield = yes
	potential = {
		tag = R62
		has_country_flag = command_zyujyut_activated_flag
	}
	
	R62_start_the_zyujyut_campaign = {
		icon = mission_assemble_an_army
		position = 2
		required_missions = {
			R62_the_war_room
		}
		
		provinces_to_highlight = {
			province_id = 4839
		}
		
		trigger = {
			if = {
				limit = {
					NOT = { owns_or_subject_of = 4839 }
				}
				4839 = { #Zyugok
					owner = { war_with = ROOT }
				}
			}
			else = {
				owns_or_subject_of = 4839 #Zyugok
			}
		}
		
		effect = {
			#!
		}
	}
	
	R62_that_was_just_the_beginning = {
		icon = mission_assemble_an_army
		position = 3
		required_missions = {
			R62_start_the_zyujyut_campaign
		}
		
		provinces_to_highlight = {
			OR = {
				province_id = 4839 #Zyugok
				province_id = 4884 #Cuihiok
			}
			NOT = { country_or_subject_holds = ROOT }
		}
		
		trigger = {
			owns_or_subject_of = 4839 #Zyugok
			owns_or_subject_of = 4884 #Cuihiok
		}
		
		effect = {
			#!
		}
	}
	
	R62_southern_yanshen = {
		icon = mission_assemble_an_army
		position = 4
		required_missions = {
			R62_that_was_just_the_beginning
		}
		
		provinces_to_highlight = {
			OR = {
				province_id = 4839 #Zyugok
				province_id = 4884 #Cuihiok
				province_id = 4879 #Feiten
				province_id = 4893 #Xiyun
				province_id = 4949 #Luoyip
			}
			NOT = { country_or_subject_holds = ROOT }
		}
		
		trigger = {
			owns_or_subject_of = 4839 #Zyugok
			owns_or_subject_of = 4884 #Cuihiok
			owns_or_subject_of = 4879 #Feiten
			owns_or_subject_of = 4893 #Xiyun
			owns_or_subject_of = 4949 #Luoyip
		}
		
		effect = {
			#! Zyujyut campaign finished
			clr_country_flag = command_zyujyut_campaign_activated_flag
			set_country_flag = command_zyujyut_campaign_completed_flag
		}
	}
}

command_tianlou_2 = {
	slot = 2
	generic = no
	ai = yes
	has_country_shield = yes
	potential = {
		tag = R62
		has_country_flag = command_tianlou_activated_flag
	}
	
	R62_local_command_support_tianlou = {
		icon = mission_assemble_an_army
		position = 2
		
		trigger = {
			estate_loyalty = {
				estate = estate_dragon_command
				loyalty = 70
			}
			estate_influence = {
				estate = estate_dragon_command
				influence = 50
			}
		}
		
		effect = {
			add_country_modifier = {
				name = command_more_siege
				duration = 3650
			}
		}
	}
	
	R62_the_siegeworks_of_tianlou = {
		icon = mission_assemble_an_army
		position = 3
		required_missions = {
			R62_local_command_support_tianlou
		}
		
		trigger = {
			4871 = { #Tianlou
				artillery_in_province = 20
				sieged_by = ROOT
			}
		}
		
		effect = {
			4871 = { #Tianlou
				change_siege = 5
			}
		}
	}
}

command_tianlou_3 = {
	slot = 3
	generic = no
	ai = yes
	has_country_shield = yes
	potential = {
		tag = R62
		has_country_flag = command_tianlou_activated_flag
	}
	
	R62_start_the_tianlou_campaign = {
		icon = mission_assemble_an_army
		position = 2
		required_missions = {
			R62_the_war_room
		}
		
		provinces_to_highlight = {
			province_group = campaign_tianlou_provinces
			NOT = { country_or_subject_holds = ROOT }
		}
		
		trigger = {
			campaign_tianlou_provinces = {
				owner = { war_with = ROOT }
			}
		}
		
		effect = {
			
		}
	}
	
	R62_warlords_fallen_to_warlords = {
		icon = mission_assemble_an_army
		position = 3
		required_missions = {
			R62_start_the_tianlou_campaign
		}
		
		provinces_to_highlight = {
			province_id = 4868 #Jiangdu
		}
		
		trigger = {
			owns_or_subject_of = 4868 #Jiangdu
		}
		
		effect = {
			
		}
	}
	
	R62_the_temple_city = {
		icon = mission_assemble_an_army
		position = 4
		required_missions = {
			R62_warlords_fallen_to_warlords
		}
		
		provinces_to_highlight = {
			province_group = campaign_tianlou_provinces
			NOT = { country_or_subject_holds = ROOT }
		}
		
		trigger = {
			campaign_tianlou_provinces = {
				type = all
				country_or_subject_holds = ROOT
			}
		}
		
		effect = {
			#! Tianlou campaign finished
			clr_country_flag = command_tianlou_campaign_activated_flag
			set_country_flag = command_tianlou_campaign_completed_flag
		}
	}
}

command_tianlou_4 = {
	slot = 4
	generic = no
	ai = yes
	has_country_shield = yes
	potential = {
		tag = R62
		has_country_flag = command_tianlou_activated_flag
	}
	
	R62_the_battle_of_shengdao = {
		icon = mission_assemble_an_army
		position = 3
		required_missions = {
			R62_start_the_tianlou_campaign
		}
		
		provinces_to_highlight = {
			province_id = 4870 #Shengdao
		}
		
		trigger = {
			4870 = { #Shengdao
				num_of_units_in_province = { amount = 40 }
				num_of_units_in_province = { who = ROOT amount = 10 }
				unit_in_battle = yes
			}
		}
		
		effect = {
			add_country_modifier = {
				name = command_less_fire #! implement
				duration = 30
			}
		}
	}
}

command_jiantsiang_2 = {
	slot = 2
	generic = no
	ai = yes
	has_country_shield = yes
	potential = {
		tag = R62
		has_country_flag = command_jiantsiang_activated_flag
	}
}

command_jiantsiang_3 = {
	slot = 3
	generic = no
	ai = yes
	has_country_shield = yes
	potential = {
		tag = R62
		has_country_flag = command_jiantsiang_activated_flag
	}
	
	R62_start_the_jiantsiang_campaign = {
		icon = mission_assemble_an_army
		position = 2
		required_missions = {
			R62_the_war_room
		}
		
		trigger = {
			
		}
		
		effect = {
			
		}
	}
	
	R62_the_march_north = {
		icon = mission_assemble_an_army
		position = 3
		required_missions = {
			R62_start_the_jiantsiang_campaign
		}
		
		trigger = {
			
		}
		
		effect = {
			
		}
	}
	
	R62_the_borderlands = {
		icon = mission_assemble_an_army
		position = 4
		required_missions = {
			R62_the_march_north
		}
		
		trigger = {
			
		}
		
		effect = {
			
		}
	}
}

command_jiantsiang_4 = {
	slot = 4
	generic = no
	ai = yes
	has_country_shield = yes
	potential = {
		tag = R62
		has_country_flag = command_jiantsiang_activated_flag
	}
}

command_tree_of_stone_2 = {
	slot = 2
	generic = no
	ai = yes
	has_country_shield = yes
	potential = {
		tag = R62
		has_country_flag = command_tree_of_stone_activated_flag
	}
}

command_tree_of_stone_3 = {
	slot = 3
	generic = no
	ai = yes
	has_country_shield = yes
	potential = {
		tag = R62
		has_country_flag = command_tree_of_stone_activated_flag
	}
	
	R62_start_the_tree_of_stone_campaign = {
		icon = mission_assemble_an_army
		position = 2
		required_missions = {
			R62_the_war_room
		}
		
		trigger = {
			
		}
		
		effect = {
			
		}
	}
	
	R62_tree_of_stone_campaign_middle = {
		icon = mission_assemble_an_army
		position = 3
		required_missions = {
			R62_start_the_tree_of_stone_campaign
		}
		
		trigger = {
			
		}
		
		effect = {
			
		}
	}
	
	R62_tree_of_stone_campaign_finished = {
		icon = mission_assemble_an_army
		position = 4
		required_missions = {
			R62_tree_of_stone_campaign_middle
		}
		
		trigger = {
			
		}
		
		effect = {
			
		}
	}
}

command_tree_of_stone_4 = {
	slot = 4
	generic = no
	ai = yes
	has_country_shield = yes
	potential = {
		tag = R62
		has_country_flag = command_tree_of_stone_activated_flag
	}
}

command_azjakuma_2 = {
	slot = 2
	generic = no
	ai = yes
	has_country_shield = yes
	potential = {
		tag = R62
		has_country_flag = command_azjakuma_activated_flag
	}
}

command_azjakuma_3 = {
	slot = 3
	generic = no
	ai = yes
	has_country_shield = yes
	potential = {
		tag = R62
		has_country_flag = command_azjakuma_activated_flag
	}
	
	R62_start_the_azjakuma_campaign = {
		icon = mission_assemble_an_army
		position = 2
		required_missions = {
			R62_the_war_room
		}
		
		trigger = {
			
		}
		
		effect = {
			
		}
	}
	
	R62_azjakuma_campaign_middle = {
		icon = mission_assemble_an_army
		position = 3
		required_missions = {
			R62_start_the_azjakuma_campaign
		}
		
		trigger = {
			
		}
		
		effect = {
			
		}
	}
	
	R62_azjakuma_campaign_finished = {
		icon = mission_assemble_an_army
		position = 4
		required_missions = {
			R62_azjakuma_campaign_middle
		}
		
		trigger = {
			
		}
		
		effect = {
			
		}
	}
}

command_azjakuma_4 = {
	slot = 4
	generic = no
	ai = yes
	has_country_shield = yes
	potential = {
		tag = R62
		has_country_flag = command_azjakuma_activated_flag
	}
}


#Normal Missions
command_1 = {
	slot = 1
	generic = no
	ai = yes
	has_country_shield = yes
	potential = {
		tag = R62
	}
	
	R62_the_marching_of_boots = {
		icon = mission_assemble_an_army
		position = 2
		required_missions = {
			R62_the_war_room
		}
		
		trigger = {
			always = no
			#! complete 5 campaigns
		}
		
		effect = {
			add_country_modifier = {
				name = command_on_the_march_1
				duration = -1
			}
		}
	}
	
	R62_the_beating_of_drums = {
		icon = mission_assemble_an_army
		position = 3
		required_missions = {
			R62_the_marching_of_boots
		}
		
		trigger = {
			#! complete 10 campaigns
		}
		
		effect = {
			remove_country_modifier = command_on_the_march_1
			add_country_modifier = {
				name = command_on_the_march_2
				duration = -1
			}
		}
	}
	
	R62_the_howling_of_horns = {
		icon = mission_assemble_an_army
		position = 4
		required_missions = {
			R62_the_beating_of_drums
		}
		
		trigger = {
			#! complete 20 campaigns
		}
		
		effect = {
			remove_country_modifier = command_on_the_march_2
			add_country_modifier = {
				name = command_on_the_march_3
				duration = -1
			}
		}
	}
	
	R62_serpentsbloom_rations = {
		icon = mission_assemble_an_army
		position = 5
		
		trigger = {
			adm_power = 100
			dip_power = 100
			treasury = 100
		}
		
		effect = {
			add_adm_power = -100
			add_dip_power = -100
			add_treasury = -100
			add_country_modifier = {
				name = command_expanded_estates_country
				duration = 9125
			}
			custom_tooltip = command_serpentsbloom_tt
			tooltip = {
				random_owned_province = {
					limit = {
						trade_goods = serpentbloom
					}
					add_province_modifier = {
						name = command_expanded_estates_province
						duration = 9125
					}
				}
			}
			hidden_effect = {
				every_owned_province = {
					limit = {
						trade_goods = serpentbloom
					}
					add_province_modifier = {
						name = command_expanded_estates_province
						duration = 9125
					}
				}
			}
		}
	}
	
	R62_control_the_zanyu_kinunin = {
		icon = mission_assemble_an_army
		position = 8
		
		trigger = {
			#! moved each orcish slave state 3 times
			always = no
			R63 = { #Thunderfist
				is_subject_of = ROOT
				is_subject_of_type = slave_state
				NOT = { liberty_desire = 50 }
			}
			R64 = { #Bloodsong
				is_subject_of = ROOT
				is_subject_of_type = slave_state
				NOT = { liberty_desire = 50 }
			}
			#bypass if you loose the slave states in war or something?
		}
		
		effect = {
			
		}
	}
	
	R62_blades_and_spades = {
		icon = mission_assemble_an_army
		position = 10
		required_missions = {
			R62_control_the_zanyu_kinunin
		}
		
		trigger = {
			num_of_owned_provinces_with = {
				value = 6
				OR = {
					trade_goods = grain
					trade_goods = livestock
				}
				has_orcish_minority_trigger = yes
			}
		}
		
		effect = {
			add_country_modifier = {
				name = command_swords_and_dumplings
				duration = 7300
			}
		}
	}
	
	R62_tempered_rage = {
		icon = mission_assemble_an_army
		position = 12
		required_missions = {
			R62_blades_and_spades
		}
		
		trigger = {
			num_of_owned_provinces_with = {
				value = 10
				has_half_orcish_minority_trigger = yes
			}
		}
		
		effect = {
			
		}
	}
	
	R62_honourable_half_orcs = {
		icon = mission_assemble_an_army
		position = 15
		required_missions = {
			R62_tempered_rage
			R62_the_wuhyun
		}
		
		trigger = {
			#! Have the "Laws of Ninun" edict in a province with large half-orc minorities
		}
		
		effect = {
			#! One applicable province switches to Wuhyun Half-Orc. Wuhyun Half-Orc culture can now appear
		}
	}
	
	R62_new_schools_of_thought = {
		icon = mission_assemble_an_army
		position = 16
		required_missions = {
			R62_permit_debate
		}
		
		trigger = {
			philosopher = 3
			#! 5 different HP school origins are godlost (province group?)
		}
		
		effect = {
			
		}
	}
	
	R62_teach_and_learn = {
		icon = mission_assemble_an_army
		position = 18
		required_missions = {
			R62_new_schools_of_thought
		}
		
		trigger = {
			num_of_owned_provinces_with = {
				value = 40
				religion = godlost
			}
			num_of_owned_provinces_with = {
				value = 80
				#! has school
			}
		}
		
		effect = {
			#event "School Curriculums"
		}
	}
	
	R62_philosophy_of_state_and_blood = {
		icon = mission_assemble_an_army
		position = 20
		required_missions = {
			R62_teach_and_learn
		}
		
		trigger = {
			
		}
		
		effect = {
			#! unlock "Nationalist Teachings"
		}
	}
	
	R62_a_good_marshal = {
		icon = mission_assemble_an_army
		position = 21
		required_missions = {
			R62_philosophy_of_state_and_blood
		}
		
		trigger = {
			
		}
		
		effect = {
			
		}
	}
	
	R62_virtues_embodied = {
		icon = mission_assemble_an_army
		position = 23
		required_missions = {
			R62_a_good_marshal
		}
		
		trigger = {
			mil = 6
			adm = 6
			legitimacy = 100
			#+???
		}
		
		effect = {
			
		}
	}
}

command_2 = {
	slot = 2
	generic = no
	ai = yes
	has_country_shield = yes
	potential = {
		tag = R62
	}
	
	R62_secure_messengers = {
		icon = mission_assemble_an_army
		position = 5
		
		trigger = {
			estate_loyalty = {
				estate = estate_wolf_command
				loyalty = 50
			}
			advisor = quartermaster
			mil_power = 100
		}
		
		effect = {
			add_mil_power = -100
			add_country_modifier = {
				name = command_secure_supply_lines
				duration = 9125
			}
		}
	}
	
	R62_supply_the_kikunin = {
		icon = mission_assemble_an_army
		position = 6
		required_missions = {
			R62_serpentsbloom_rations
			R62_secure_messengers
		}
		
		trigger = {
			num_of_owned_provinces_with {
				value = 5
				region = shamakhad_region
				has_supply_depot = ROOT
			}
		}
		
		effect = {
			
		}
	}
	
	R62_calm_down_sir = {
		icon = mission_assemble_an_army
		position = 7
		
		provinces_to_highlight = {
			country_or_subject_holds = ROOT
			controlled_by = REB
		}
		
		trigger = {
			is_year = 1446
			NOT = {
				num_of_rebel_controlled_provinces = 1
			}
		}
		
		effect = {
			add_stability_or_adm_power = yes
		}
	}
	
	R62_disarming_the_conquered = {
		icon = mission_assemble_an_army
		position = 8
		required_missions = {
			R62_calm_down_sir
		}
		
		provinces_to_highlight = {
			region = shamakhad_region
			unrest = 0
		}
		
		trigger = {
			always = no
			NOT = {
				any_owned_province = {
					AND = {
						region = shamakhad_region
						unrest = 0
					}
				}
			}
		}
		
		effect = {
			set_estate_privilege = estate_gerunanin_disarmed_populance
		}
	}
	
	R62_strange_yet_familiar = {
		icon = mission_assemble_an_army
		position = 10
		required_missions = {
			R62_disarming_the_conquered
		}
		
		provinces_to_highlight = {
			if = {
				limit = {
					NOT = {
						owns = 4474 #Kamapar
						4474 = { religion = godlost }
					}
				}
				province_id = 4474 #Kamapar
			}
		}
		
		trigger = {
			owns = 4474 #Kamapar
			4474 = { religion = godlost }
		}
		
		effect = {
			#event "Similar Philosophies"
		}
	}
	
	R62_an_exaltation_of_man = {
		icon = mission_assemble_an_army
		position = 13
		required_missions = {
			R62_strange_yet_familiar
		}
		
		trigger = {
			#event "Human Proves Honour" has happened, follow Lenient teachings
		}
		
		effect = {
			add_country_modifier = {
				name = command_shifting_standards
				duration = 7300
			}
		}
	}
	
	R62_permit_debate = {
		icon = mission_assemble_an_army
		position = 15
		required_missions = {
			R62_an_exaltation_of_man
		}
		
		trigger = {
			num_of_owned_provinces_with {
				value = 25
				culture_is_human = yes
				#! has school
			}
		}
		
		effect = {
			
		}
	}
	
	R62_children_of_the_kusonin = {
		icon = mission_assemble_an_army
		position = 16
		required_missions = {
			R62_laws_of_ninun
		}
		
		trigger = {
			num_of_owned_provinces_with = {
				value = 15
				culture = kusonin
			}
		}
		
		effect = {
			
		}
	}
	
	R62_adoptive_clans = {
		icon = mission_assemble_an_army
		position = 19
		required_missions = {
			R62_the_burden_of_empire
		}
		
		trigger = {
			always = no
			NOT = { manpower_percentage = 0.2 }
			NOT = { any_owned_province = { has_construction = army } }
			government_reform_progress = 100
		}
		
		effect = {
			#event "Clan Adoption", this can now happen more often
		}
	}
	
	R62_the_ten_reforms = {
		icon = mission_assemble_an_army
		position = 21
		required_missions = {
			R62_philosophy_of_state_and_blood
			R62_adoptive_clans
			R62_the_act_of_division
		}
		
		trigger = {
			estate_loyalty = {
				estate = estate_wolf_command
				loyalty = 60
			}
			estate_loyalty = {
				estate = estate_boar_command
				loyalty = 60
			}
			estate_loyalty = {
				estate = estate_lion_command
				loyalty = 60
			}
			government_reform_progress = 100
			#! follow "Nationalist Teachings"
		}
		
		effect = {
			#eventchain "Implementing the Ten Reforms"
		}
	}
	
	R62_the_marshals_dilemma = {
		icon = mission_assemble_an_army
		position = 22
		required_missions = {
			R62_a_good_marshal
			R62_the_ten_reforms
		}
		
		trigger = {
			
		}
		
		effect = {
			
		}
	}
	
	R62_strengthen_the_ninyu_kikun = {
		icon = mission_assemble_an_army
		position = 24
		required_missions = {
			R62_the_marshals_dilemma
		}
		
		trigger = {
			
		}
		
		effect = {
			
		}
	}
	
	R62_empty = {
		icon = mission_assemble_an_army
		position = 25
		required_missions = {
			R62_strengthen_the_ninyu_kikun
		}
		
		trigger = {
			
		}
		
		effect = {
			
		}
	}
}

command_3 = {
	slot = 3
	generic = no
	ai = yes
	has_country_shield = yes
	potential = {
		tag = R62
	}
	
	R62_the_support_of_the_marshals = {
		icon = mission_assemble_an_army
		position = 5
		
		trigger = {
			estate_loyalty = {
				estate = estate_wolf_command
				loyalty = 60
			}
			estate_loyalty = {
				estate = estate_boar_command
				loyalty = 60
			}
			estate_loyalty = {
				estate = estate_lion_command
				loyalty = 60
			}
			if = {
				limit = {
					has_estate = estate_tiger_command
				}
				estate_loyalty = {
					estate = estate_tiger_command
					loyalty = 60
				}
			}
			if = {
				limit = {
					has_estate = estate_elephant_command
				}
				estate_loyalty = {
					estate = estate_elephant_command
					loyalty = 60
				}
			}
			if = {
				limit = {
					has_estate = estate_dragon_command
				}
				estate_loyalty = {
					estate = estate_dragon_command
					loyalty = 60
				}
			}
		}
		
		effect = {
			add_country_modifier = {
				name = command_support_of_the_marshals
				duration = 3650
			}
		}
	}
	
	R62_build_new_households = {
		icon = mission_assemble_an_army
		position = 6
		required_missions = {
			R62_the_support_of_the_marshals
		}
		
		trigger = {
			always = no
			num_of_owned_provinces_with = {
				value = 20
				region = shamakhad_region
				has_manpower_building_trigger = yes
			}
			4635 = { #Khanamohri
				country_or_subject_holds = ROOT
				has_manpower_building_trigger = yes
			}
		}
		
		effect = {
			add_country_modifier = {
				name = command_preparing_homesteads
				duration = 3650
			}
		}
	}
	
	R62_moving_camp = {
		icon = mission_assemble_an_army
		position = 7
		required_missions = {
			R62_supply_the_kikunin
			R62_build_new_households
		}
		
		trigger = {
			is_at_war = no
			NOT = {
				has_country_modifier = command_preparing_homesteads
			}
		}
		
		effect = {
			#eventchain "Moving Camp"
		}
	}
	
	R62_digging_in = {
		icon = mission_assemble_an_army
		position = 10
		required_missions = {
			R62_moving_camp
		}
		
		trigger = {
			num_of_owned_provinces_with = {
				value = 10
				region = shamakhad_region
				has_fort_building_trigger = yes
			}
			#fort building in each warcamp
		}
		
		effect = {
			#20 manpower dev distributed over hobgoblin provinces
		}
	}
	
	R62_a_changing_diet = {
		icon = mission_assemble_an_army
		position = 11
		required_missions = {
			R62_blades_and_spades
			R62_digging_in
		}
		
		provinces_to_highlight = {
			country_or_subject_holds = ROOT
			trade_goods = grain
			NOT = { base_production = 5 }
			NOT = { has_building = farm_estate }
		}
		
		trigger = {
			num_of_owned_provinces_with = {
				value = 10
				trade_goods = grain
				base_production = 5
				has_building = farm_estate
			}
		}
		
		effect = {
			add_country_modifier = {
				name = command_reacclimatising_to_the_surface
				duration = 9125
			}
		}
	}
	
	R62_life_under_the_sun = {
		icon = mission_assemble_an_army
		position = 12
		required_missions = {
			R62_a_changing_diet
		}
		
		trigger = {
			NOT = { has_country_modifier = command_reacclimatising_to_the_surface }
			stability = 3
		}
		
		effect = {
			#event "Life under the Sun"
		}
	}
	
	R62_the_wuhyun = {
		icon = mission_assemble_an_army
		position = 14
		required_missions = {
			R62_an_exaltation_of_man
			R62_misty_drills
		}
		
		trigger = {
			NOT = { has_country_modifier = command_shifting_standards }
			estate_influence = {
				estate = estate_gerunanin
				influence = 40
			}
			estate_loyalty = {
				estate = estate_gerunanin
				loyalty = 50
			}
		}
		
		effect = {
			xianjie_region = {
				#change 3 provinces to wuhyun culture
			}
		}
	}
	
	R62_laws_of_ninun = {
		icon = mission_assemble_an_army
		position = 15
		required_missions = {
			R62_the_wuhyun
		}
		
		trigger = {
			dip_power = 100
			#follow strict teachings
		}
		
		effect = {
			add_dip_power = -100
			#unlock "Laws of Ninun"
		}
	}
	
	R62_warriors_of_the_kintonan = {
		icon = mission_assemble_an_army
		position = 16
		required_missions = {
			R62_laws_of_ninun
		}
		
		trigger = {
			num_of_owned_provinces_with = {
				value = 15
				culture = kintonan
			}
		}
		
		effect = {
			add_country_modifier = {
				name = command_shinobi
				duration = -1
			}
		}
	}
	
	R62_wuhyun_kikun = {
		icon = mission_assemble_an_army
		position = 17
		required_missions = {
			R62_children_of_the_kusonin
			R62_warriors_of_the_kintonan
			R62_guards_of_the_ikaniwagain
		}
		
		trigger = {
			mil_power = 100
			estate_influence = {
				estate = estate_gerunanin
				influence = 40
			}
			estate_loyalty = {
				estate = estate_gerunanin
				loyalty = 60
			}
		}
		
		effect = {
			#the highest dev province of each human Wuhyun culture gains a warcamp province modifier, 2 manpower and spawns a 12/2/10 army
		}
	}
	
	R62_the_burden_of_empire = {
		icon = mission_assemble_an_army
		position = 18
		
		trigger = {
			total_development = 1000
		}
		
		effect = {
			add_estate_influence_modifier = {
				estate = estate_wolf_command
				desc = COMMAND_BURDEN_OF_EMPIRE
				influence = 5
				duration = 18250
			}
			add_estate_influence_modifier = {
				estate = estate_boar_command
				desc = COMMAND_BURDEN_OF_EMPIRE
				influence = 5
				duration = 18250
			}
			add_estate_influence_modifier = {
				estate = estate_lion_command
				desc = COMMAND_BURDEN_OF_EMPIRE
				influence = 5
				duration = 18250
			}
			add_adm_power = 150
		}
	}
	
	R62_the_act_of_division = {
		icon = mission_assemble_an_army
		position = 20
		required_missions = {
			R62_the_burden_of_empire
		}
		
		trigger = {
			always = no
			estate_loyalty = {
				estate = estate_wolf_command
				loyalty = 60
			}
			estate_loyalty = {
				estate = estate_boar_command
				loyalty = 60
			}
			estate_loyalty = {
				estate = estate_lion_command
				loyalty = 60
			}
			OR = {
				government_reform_progress = 200
				full_idea_group = administrative_ideas
			}
			government_reform_progress = 100
			stability = 3
		}
		
		effect = {
			#gain access to "The Act of Division" privilege
		}
	}
	
	R62_the_tiger_command = {
		icon = mission_assemble_an_army
		position = 21
		required_missions = {
			R62_the_act_of_division
			R62_the_great_warcamps
		}
		
		provinces_to_highlight = {
			province_id = 4504 #Rayavhatimana
		}
		
		trigger = {
			owns_core_province = 4504 #Rayavhatimana
			crown_land_share = 50
			#TODO check if you can complete all three command missions at the same time
		}
		
		effect = {
			4504 = { #Rayavhatimana
				add_province_modifier = {
					name = command_tiger_warcamp
					duration = -1
				}
			} 
			#unlock tiger command
			#tiger command gets 10 land, need to test if this works since it takes a month tick sometimes
			change_estate_land_share = {
				estate = estate_tiger_command
				share = 10
			}
		}
	}
	
	R62_X1 = {
		icon = mission_assemble_an_army
		position = 22
		required_missions = {
			R62_the_tiger_command
		}
		
		trigger = {
			
		}
		
		effect = {
			
		}
	}
	
	R62_X2 = {
		icon = mission_assemble_an_army
		position = 23
		required_missions = {
			R62_X1
		}
		
		trigger = {
			
		}
		
		effect = {
			
		}
	}
	
	R62_shackled_claws = { #Hide until disaster happens?
		icon = mission_assemble_an_army
		position = 24
		
		trigger = {
			#have dealt with the tiger command in the great shattering
			always = no
		}
		
		effect = {
			
		}
	}
	
	R62_one_great_command = {
		icon = mission_assemble_an_army
		position = 26
		required_missions = {
			R62_empty
			R62_loyalty_enforced
		}
		
		provinces_to_highlight = {
			NOT = { country_or_subject_holds = ROOT }
			OR = {
				superregion = rahen_superregion
				superregion = yanshen_superregion
				superregion = south_haless_superregion
			}
		}
		
		trigger = {
			rahen_superregion = {
				type = all
				country_or_subject_holds = ROOT
			}
			yanshen_superregion = {
				type = all
				country_or_subject_holds = ROOT
			}
			south_haless_superregion = {
				type = all
				country_or_subject_holds = ROOT
			}
			#more?
		}
		
		effect = {
			
		}
	}
	
	R62_the_edict_of_x = {
		icon = mission_assemble_an_army
		position = 27
		required_missions = {
			R62_one_great_command
		}
		
		trigger = {
			
		}
		
		effect = {
			
		}
	}
}

command_4 = {
	slot = 4
	generic = no
	ai = yes
	has_country_shield = yes
	potential = {
		tag = R62
	}
	
	R62_cursed_temples = {
		icon = mission_assemble_an_army
		position = 5
		required_missions = {
			R62_a_question_of_allegiance
		}
		
		trigger = {
			num_of_owned_provinces_with = {
				value = 3
				has_province_modifier = damaged_temple_complex
			}
			OR = {
				alliance_with = Y01
				Y01 = { is_subject_of = ROOT }
			}
		}
		
		effect = {
			#event "End the Temple's Curse"
		}
	}
	
	R62_prepare_new_stewards = {
		icon = mission_assemble_an_army
		position = 6
		
		trigger = {
			always = no
			adm_power = 100
			num_of_diplomats = 1
			num_of_missionaries = 1
		}
		
		effect = {
			#event "the Governance of the Mines"
		}
	}
	
	R62_warbringer_peacemaker = {
		icon = mission_assemble_an_army
		position = 7
		required_missions = {
			R62_prepare_new_stewards
		}
		
		trigger = {
			#! tension in Jade Mines less than 10
			R65 = { #Blackstep
				is_subject_of = ROOT
				is_subject_of_type = slave_state
				NOT = { liberty_desire = 50 }
			}
			R66 = { #Stolen Gem
				is_subject_of = ROOT
				is_subject_of_type = slave_state
				NOT = { liberty_desire = 50 }
			}
		}
		
		effect = {
			#! Jade rivalry will end
		}
	}
	
	R62_the_jade_march = {
		icon = mission_assemble_an_army
		position = 8
		required_missions = {
			R62_moving_camp
			R62_warbringer_peacemaker
		}
		
		trigger = {
			NOT = {
				jade_mines_region = {
					any_province = {
						culture_is_hobgoblin = yes
					}
				}
			}
		}
		
		effect = {
			#! merged goblin state owning all the jade mines
		}
	}
	
	R62_deep_mithril_mining = {
		icon = mission_assemble_an_army
		position = 10
		required_missions = {
			R62_the_jade_march
		}
		
		trigger = {
			OR = {
				calc_true_if = {
					amount = 2
					any_owned_province = {
						trade_goods = mithril
						base_production = 6
					}
					any_subject_country = {
						any_owned_province = {
							trade_goods = mithril
							base_production = 6
						}
					}
				}
				any_owned_province = {
					trade_goods = mithril
					base_production = 11
				}
				any_subject_country = {
					any_owned_province = {
						trade_goods = mithril
						base_production = 11
					}
				}
			}
		}
		
		effect = {
			add_country_modifier = {
				name = command_mithril_weaponry
				duration = 7300
			}
		}
	}
	
	R62_the_mithril_forge = {
		icon = mission_assemble_an_army
		position = 12
		required_missions = {
			R62_deep_mithril_mining
			R62_the_sarilavhan_foundries
		}
		
		trigger = {
			owns = 4630 #Sarilavhan
			OR = {
				calc_true_if = {
					amount = 2
					any_owned_province = {
						trade_goods = mithril
						base_production = 13
					}
					any_subject_country = {
						any_owned_province = {
							trade_goods = mithril
							base_production = 13
						}
					}
				}
				any_owned_province = {
					trade_goods = mithril
					base_production = 25
				}
				any_subject_country = {
					any_owned_province = {
						trade_goods = mithril
						base_production = 25
					}
				}
			}
		}
		
		effect = {
			4630 = { #Sarilavhan
				add_permanent_province_modifier = {
					name = command_the_mithril_forge #Remove when the condition isn't fulfilled anymore?
					duration = -1
				}
			}
		}
	}
	
	R62_misty_drills = {
		icon = mission_assemble_an_army
		position = 13
		
		trigger = {
			always = no
			#! completed xiadao campaign
			num_of_owned_provinces_with = {
				value = 10
				region = xianjie_region
				has_manpower_building_trigger = yes
			}
		}
		
		effect = {
			#event "The Expertise of the Xiaken Temples"
		}
	}
	
	R62_the_nature_of_chi = {
		icon = mission_assemble_an_army
		position = 14
		required_missions = {
			R62_misty_drills
		}
		
		trigger = {
			#! completed xianjie campaign
			owns = 4559 #Xiadao
			philosopher = 2
		}
		
		effect = {
			#event "The Legality of Chi Practises"
		}
	}
	
	R62_guards_of_the_ikaniwagain = {
		icon = mission_assemble_an_army
		position = 16
		required_missions = {
			R62_laws_of_ninun
		}
		
		trigger = {
			num_of_owned_provinces_with = {
				value = 15
				culture = ikaniwagain
			}
		}
		
		effect = {
			
		}
	}
	
	R62_spread_garrisons = {
		icon = mission_assemble_an_army
		position = 19
		required_missions = {
			R62_the_burden_of_empire
		}
		
		trigger = {
			always = no
			num_of_owned_provinces_with = {
				value = 10
				NOT = { region = shamakhad_region }
				has_fort_building_trigger = yes
				has_supply_depot = yes
			}
		}
		
		effect = {
			#! specified provinces get hobgoblin minority if not preset. If below 6 dev or lower -> hobgoblin majority
		}
	}
	
	R62_the_great_warcamps = {
		icon = mission_assemble_an_army
		position = 20
		required_missions = {
			R62_spread_garrisons
		}
		
		provinces_to_highlight = {
			OR = {
				province_id = 4952 #Chatzin
				province_id = 4504 #Rayavhatimana
				province_id = 4613 #Zhaoyun
			}
			OR = {
				NOT = { country_or_subject_holds = ROOT }
				NOT = { is_core = ROOT }
				has_supply_depot = no
			}
		}
		
		trigger = {
			adm_power = 50
			dip_power = 50
			mil_power = 50
			4952 = { #Chatzin
				country_or_subject_holds = ROOT
				is_core = ROOT
				has_supply_depot = yes
			}
			4504 = { #Rayavhatimana
				country_or_subject_holds = ROOT
				is_core = ROOT
				has_supply_depot = yes
			}
			4613 = { #Zhaoyun
				country_or_subject_holds = ROOT 
				is_core = ROOT
				has_supply_depot = yes
			}
		}
		
		effect = {
			add_adm_power = -50
			add_dip_power = -50
			add_mil_power = -50
			4952 = { #Chatzin
				add_base_manpower = 5
				add_base_tax = 1
			}
			4504 = { #Rayavhatimana
				add_base_manpower = 5
				add_base_tax = 1
			}
			4613 = { #Zhaoyun
				add_base_manpower = 5
				add_base_tax = 1
			}
		}
	}
	
	R62_the_elephant_command = {
		icon = mission_assemble_an_army
		position = 21
		required_missions = {
			R62_the_act_of_division
			R62_the_great_warcamps
		}
		
		provinces_to_highlight = {
			province_id = 4613 #Zhaoyun
		}
		
		trigger = {
			owns_core_province = 4613 #Zhaoyun
			crown_land_share = 50
			#TODO check if you can complete all three command missions at the same time
		}
		
		effect = {
			4613 = { #Zhaoyun
				add_province_modifier = {
					name = command_elephant_warcamp
					duration = -1
				}
			} 
			#! unlock elephant command
			# elephant command gets 10 land, need to test if this works since it takes a month tick sometimes
			change_estate_land_share = {
				estate = estate_elephant_command
				share = 10
			}
		}
	}
	
	R62_X3 = {
		icon = mission_assemble_an_army
		position = 22
		required_missions = {
			R62_the_elephant_command
		}
		
		trigger = {
			
		}
		
		effect = {
			
		}
	}
	
	R62_X4 = {
		icon = mission_assemble_an_army
		position = 23
		required_missions = {
			R62_X3
		}
		
		trigger = {
			
		}
		
		effect = {
			
		}
	}
	
	R62_blunted_tusks = {
		icon = mission_assemble_an_army
		position = 24
		
		trigger = {
			always = no
			#deal with elephant command
		}
		
		effect = {
			
		}
	}
	
	R62_loyalty_enforced = {
		icon = mission_assemble_an_army
		position = 25
		required_missions = {
			R62_shackled_claws
			R62_blunted_tusks
			R62_muzzled_breath
		}
		
		trigger = {
			
		}
		
		effect = {
			
		}
	}
}

command_5 = {
	slot = 5
	generic = no
	ai = yes
	has_country_shield = yes
	potential = {
		tag = R62
	}
	
	R62_korashi_imports = {
		icon = mission_assemble_an_army
		position = 2
		
		trigger = {
			always = no
			mil_power = 50
			alliance_with = Y01
			reverse_has_opinion {
				who = Y01
				value = 150
			}
		}
		
		effect = {
			add_mil_power = -50
			add_country_modifier = {
				name = command_secure_korashi_supply
				duration = -1 #! remove when alliance breaks
				desc = command_korashi_duration_tt
			}
		}
	}
	
	R62_a_question_of_allegiance = {
		icon = mission_assemble_an_army
		position = 4
		required_missions = {
			R62_korashi_imports
		}
		
		trigger = {
			OR = {
				AND = {
					alliance_with = Y01
					trust = {
						who = Y01
						value = 80
					}
				}
				NOT = {
					alliance_with = Y01
				}
			}
		}
		
		effect = {
			if = {
				limit = {
					alliance_with = Y01
				}
				#! offer slave_state
			}
			else = {
				#! unlock Azjakuma campaign
			}
		}
	}
	
	R62_extract_oni_secrets = {
		icon = mission_assemble_an_army
		position = 6
		required_missions = {
			R62_a_question_of_allegiance
		}
		
		trigger = {
			
		}
		
		effect = {
			
		}
	}
	
	R62_new_chain_workshops = {
		icon = mission_assemble_an_army
		position = 8
		required_missions = {
			R62_extract_oni_secrets
		}
		
		provinces_to_highlight = {
			OR = {
				region = demon_hills_region
				area = pharata_area
				area = sir_area
			}
			has_production_building_trigger = no
		}
		
		trigger = {
			num_of_owned_provinces_with = {
				value = 20
				OR = {
					region = demon_hills_region
					area = pharata_area
					area = sir_area
				}
				has_production_building_trigger = yes
			}
		}
		
		effect = {
			add_country_modifier = {
				name = command_secure_korashi_supply
				duration = -1 # already added before, this time no conditions
			}
		}
	}
	
	R62_end_raheni_magic = {
		icon = mission_assemble_an_army
		position = 9
		required_missions = {
			R62_disarming_the_conquered
			R62_new_chain_workshops
		}
		
		trigger = {
			NOT = { has_country_modifier = command_stockpiling_korashi_chains } #! this isn't added anywhere yet
		}
		
		effect = {
			#event "The End of Rageni Magic"
		}
	}
	
	R62_centralized_exploitation = {
		icon = mission_assemble_an_army
		position = 10
		
		trigger = {
			always = no
			production_efficiency = 0.3
			num_of_owned_provinces_with = {
				value = 5
				has_production_building_trigger = yes
			}
			treasury = 200
		}
		
		effect = {
			#! 10 production randomly distributed over provinces with workshops
		}
	}
	
	R62_the_sarilavhan_foundries = {
		icon = mission_assemble_an_army
		position = 11
		required_missions = {
			R62_digging_in
			R62_centralized_exploitation
		}
		
		provinces_to_highlight = {
			province_id = 4630 #Sarilavhan
		}
		
		trigger = {
			owns_core_province = 4630 #Sarilavhan
			4630 = {
				base_production = 10
				OR = {
					AND = {
						has_production_building_trigger = yes
						has_manufactory_trigger = yes
					}
					trade_goods = gold
				}
			}
		}
		
		effect = {
			add_permanent_province_modifier = {
				name = command_sarilavhan_foundries
				duration = -1
			}
		}
	}
	
	R62_the_evolution_of_warfare = {
		icon = mission_assemble_an_army
		position = 14
		required_missions = {
			R62_the_sarilavhan_foundries
		}
		
		trigger = {
			num_of_artillery = 1
			has_global_modifier_value = {
				which = discipline
				value = 0.15
			}
		}
		
		effect = {
			add_country_modifier = {
				name = command_a_new_age_of_warfare
				duration = 7300
			}
		}
	}
	
	R62_expand_the_sunyani = {
		icon = mission_assemble_an_army
		position = 17
		required_missions = {
			R62_the_evolution_of_warfare
		}
		
		trigger = {
			num_of_artillery = 20
		}
		
		effect = {
			define_general = {
				fire = 5
				shock = 1
				manuever = 2
				siege = 6
				name = "Tose Wolfborn"
				female = yes
				trait = siege_specialist_personality
			}
		}
	}
	
	R62_the_dragon_command = {
		icon = mission_assemble_an_army
		position = 21
		required_missions = {
			R62_the_act_of_division
			R62_the_great_warcamps
			R62_expand_the_sunyani
		}
		
		provinces_to_highlight = {
			province_id = 4952 #Chatzin
		}
		
		trigger = {
			owns_core_province = 4952 #Chatzin
			crown_land_share = 50
			#TODO check if you can complete all three command missions at the same time
		}
		
		effect = {
			4952 = { #Chatzin
				add_province_modifier = {
					name = command_dragon_warcamp
					duration = -1
				}
			}
			#unlock dragon command
			#dragon command gets 10 land, need to test if this works since it takes a month tick sometimes
			change_estate_land_share = {
				estate = estate_dragon_command
				share = 10
			}
		}
	}
	
	R62_korashi_tuners = {
		icon = mission_assemble_an_army
		position = 22
		required_missions = {
			R62_the_dragon_command
		}
		
		trigger = {
			has_country_modifier = command_secure_korashi_supply
			natural_scientist = 3
			estate_loyalty = {
				estate = estate_dragon_command
				loyalty = 60
			}
		}
		
		effect = {
			
		}
	}
	
	R62_korashi_tuners2 = {
		icon = mission_assemble_an_army
		position = 23
		required_missions = {
			R62_korashi_tuners
		}
		
		trigger = {
			
		}
		
		effect = {
			
		}
	}
	
	R62_muzzled_breath = {
		icon = mission_assemble_an_army
		position = 24
		
		trigger = {
			always = no
			#deal with dragon command
		}
		
		effect = {
			
		}
	}
}