rajnadhaga_conquest_1 = {
	slot = 1
	generic = no
	ai = yes
	potential = {
		tag = R07
	}
	has_country_shield = yes
	
	rajnadhaga_avenge_the_peace = {
		icon = mission_levantine_restoration
		required_missions = { rajnadhaga_prepare_for_war }
		position = 2
		
		provinces_to_highlight = {
			OR = {
				province_id = 4451
				province_id = 4452
			}
			OR = {
				NOT = { owned_by = ROOT }
				NOT = { is_core = ROOT }
			}
		}
		
		trigger = {
			owns_core_province = 4451
			owns_core_province = 4452
		}
		
		effect = {
			add_prestige = 10
			tiltaghar_area = {
				limit = {
					NOT = { owned_by = ROOT }
					NOT = { is_core = ROOT }
				}
				add_permanent_claim = ROOT
			}
		}
	}
	
	rajnadhaga_weaken_the_raj = {
		icon = mission_levantine_restoration
		required_missions = { rajnadhaga_avenge_the_peace }
		position = 3
		
		trigger = {
			R06 = { liberty_desire = 50 }
			R08 = { liberty_desire = 50 }
		}
		
		effect = {
			country_event = { id = flavor_rajnadhaga.5 }
		}
	}
	
	rajnadhaga_antideluvian_nobility = {
		icon = mission_integrate_the_gonds
		required_missions = { rajnadhaga_heir_sarnihanpur }
		position = 5
		
		trigger = {
			if = {
				limit = { has_estate = estate_nobles }
				estate_influence = {
					estate = estate_nobles
					influence = 75
				}
				estate_loyalty = {
					estate = estate_nobles
					loyalty = 60
				}
			}
			else_if = {
				limit = { has_estate = estate_uppercastes }
				estate_influence = {
					estate = estate_uppercastes
					influence = 75
				}
				estate_loyalty = {
					estate = estate_uppercastes
					loyalty = 60
				}
			}
		}
		
		effect = {
			add_country_modifier = {
				name = rajnadhaga_ancient_bonds
				duration = 10950
			}
		}
	}
	
	rajnadhaga_harimari_nobility = {
		icon = mission_conquer_bengal_tau
		required_missions = { rajnadhaga_antideluvian_nobility }
		position = 5
		
		trigger = {
			accepted_culture = royal_harimari
		}
		
		effect = {
			define_general = {
				shock = 5
				fire = 1
				siege = 1
				manuever = 4
			}
		}
	}
}

rajnadhaga_slaves = {
	slot = 1
	generic = no
	ai = yes
	potential = {
		tag = R07
	}
	has_country_shield = yes
	
	rajnadhaga_new_slavewarriors = {
		icon = mission_non-western_soldiers
		required_missions = { rajnadhaga_start_reconquest }
		position = 7
		
		provinces_to_highlight = {
			owned_by = ROOT
			province_has_center_of_trade_of_level = 1
			NOT = { province_has_center_of_trade_of_level = 2 }
			NOT = { ROOT = { any_owned_province = { province_has_center_of_trade_of_level = 2 } } }
		}
		
		trigger = {
			barracks = 5
			years_of_income = 1
			any_owned_province = {
				province_has_center_of_trade_of_level = 2
			}
		}
		
		effect = {
			add_years_of_income = -1
			add_yearly_manpower = 2
		}
	}
	
	rajnadhaga_orc_slavewarriors = {
		icon = mission_integrate_the_purbias
		required_missions = { rajnadhaga_new_slavewarriors }
		position = 8
		
		provinces_to_highlight = {
			culture = brown_orc
			trade_goods = slaves
			NOT = { owned_by = ROOT }
			has_discovered = ROOT
		}
		
		trigger = {
			any_owned_province = {
				culture = brown_orc
				trade_goods = slaves
			}
		}
		
		effect = {
			add_country_modifier = {
				name = rajnadhaga_orcs_less_discipline
				duration = 7300
			}
			random_owned_province = {
				limit = {
					culture = brown_orc
					trade_goods = slaves
				}
				add_base_manpower = 3
			}
		}
	}
	
	rajnadhaga_brown_band = {
		required_missions = { rajnadhaga_orc_slavewarriors }
		icon = mission_manchu_warrior
		position = 9
		
		trigger = {
			army_reformer = 2
			NOT = { has_country_modifier = rajnadhaga_orcs_less_discipline }
		}
		
		effect = {
			add_accepted_culture = brown_orc
			medium_increase_of_orcish_tolerance_effect = yes
			add_country_modifier = {
				name = rajnadhaga_orcs_guard
				duration = -1
			}
			hidden_effect = {
				shamakhad_region = {
					limit = {
						culture = brown_orc
						owned_by = R62
					}
					add_permanent_claim = ROOT
				}
			}
			custom_tooltip = rajnadhaga_orcs_under_command
		}
	}
}

rajnadhaga_ghankedhen = {
	slot = 1
	generic = no
	ai = yes
	potential = {
		tag = R07
	}
	has_country_shield = yes
	
	rajnadhaga_shepherds = {
		icon = mission_secure_khandesh
		required_missions = { rajnadhaga_retake_sir }
		position = 10
		
		provinces_to_highlight = {
			OR = {
				area = north_ghankedhen_area
				area = babhagama_area
				area = south_ghankedhen_area
			}
			NOT = { country_or_non_sovereign_subject_holds = ROOT  }
		}
		
		trigger = {
			south_ghankedhen_area = {
				type = all
				country_or_non_sovereign_subject_holds = ROOT
			}
			north_ghankedhen_area = {
				type = all
				country_or_non_sovereign_subject_holds = ROOT
			}
			babhagama_area = {
				type = all
				country_or_non_sovereign_subject_holds = ROOT
			}
		}
		
		effect = {
			rakhadesh_region = { add_claim = ROOT }
		}
	}
}

rajnadhaga_conquest_2 = {
	slot = 2
	generic = no
	ai = yes
	potential = {
		tag = R07
	}
	has_country_shield = yes
	
	rajnadhaga_prepare_for_war = {
		icon = mission_levantine_restoration
		required_missions = { }
		position = 1
		
		trigger = {
			army_size_percentage = 1
		}
		
		effect = {
			if = {
				limit = {
					4475 = {
						NOT = { is_core = ROOT }
						NOT = { owned_by = ROOT }
					}
				}
				4475 = {
					add_permanent_claim = ROOT
				}
			}
			if = {
				limit = {
					4467 = {
						NOT = { is_core = ROOT }
						NOT = { owned_by = ROOT }
					}
				}
				4467 = {
					add_permanent_claim = ROOT
				}
			}
		}
	}
	
	rajnadhaga_submit_the_weak = {
		icon = mission_subdue_rajputana
		required_missions = { rajnadhaga_prepare_for_war }
		position = 2
		
		provinces_to_highlight = {
			OR = {
				province_id = 4475
				province_id = 4467
			}
			NOT = { country_or_non_sovereign_subject_holds = ROOT }
		}
		
		trigger = {
			4475 = { country_or_non_sovereign_subject_holds = ROOT }
			4467 = { country_or_non_sovereign_subject_holds = ROOT }
		}
		
		effect = {
			R10 = {
				every_owned_province = {
					add_permanent_claim = ROOT
				}
			}
		}
	}
	
	rajnadhaga_end_Sarnavan = {
		icon = mission_order_in_the_domain
		required_missions = { rajnadhaga_submit_the_weak }
		position = 3
		
		provinces_to_highlight = {
			OR = {
				AND = {
					province_id = 4510
					OR = {
						NOT = { owned_by = ROOT }
						NOT = { is_core = ROOT }
					}
				}
				owned_by = R10
			}
		}
		
		trigger = {
			owns_core_province = 4510
			NOT = { exists = R10 }
		}
		
		effect = {
			add_country_modifier = {
				name = "army_enthusiasm"
				duration = 9125 #25 years
			}
		}
	}
	
	rajnadhaga_heir_sarnihanpur = {
		icon = mission_the_ganges_campaign
		required_missions = { rajnadhaga_end_Sarnavan }
		position = 4
		
		provinces_to_highlight = {
			OR = {
				province_id = 4465
				province_id = 4510
				province_id = 4467
			}
			NOT = { country_or_non_sovereign_subject_holds = ROOT }
		}
		
		trigger = {
			4465 = { country_or_non_sovereign_subject_holds = ROOT }
			4510 = { country_or_non_sovereign_subject_holds = ROOT }
			4467 = { country_or_non_sovereign_subject_holds = ROOT }
		}
		
		effect = {
			add_country_modifier = {
				name = rajnadhaga_heir_nadimraj
				duration = 9125
			}
		}
	}
	
	rajnadhaga_start_reconquest = {
		icon = mission_assemble_an_army
		required_missions = { rajnadhaga_heir_sarnihanpur }
		position = 6
		
		trigger = {
			OR = {
				is_rival = R62
				AND = {
					army_size_percentage = 0.95
					manpower_percentage = 1
				}
			}
		}
		
		effect = {
			munlanan_area = {
				limit = {
					NOT = {
						owned_by = ROOT
						is_core = ROOT
					}
				}
				add_permanent_claim = ROOT
			}
			khadisrapur_area = {
				limit = {
					NOT = {
						owned_by = ROOT
						is_core = ROOT
					}
				}
				add_permanent_claim = ROOT
			}
			nakara_area = {
				limit = {
					NOT = {
						owned_by = ROOT
						is_core = ROOT
					}
				}
				add_permanent_claim = ROOT
			}
			raghajandi_area = {
				limit = {
					NOT = {
						owned_by = ROOT
						is_core = ROOT
					}
				}
				add_permanent_claim = ROOT
			}
		}
	}
}

rajnadhaga_conquest_4 = {
	slot = 2
	generic = no
	ai = yes
	potential = {
		tag = R07
	}
	has_country_shield = yes
	
	rajnadhaga_avenge_brethern = {
		icon = mission_fortify_mandu
		required_missions = { rajnadhaga_start_reconquest }
		position = 7
		
		provinces_to_highlight = {
			province_id = 4630
			NOT = { owned_by = ROOT }
		}
		
		trigger = {
			4630 = { owned_by = ROOT }
		}
		
		effect = {
			country_event = { id = flavor_rajnadhaga.1 }
			hidden_effect = {
				shamakhad_region = {
					limit = {
						culture_group = upper_raheni
						owned_by = R62
					}
					add_permanent_claim = ROOT
				}
			}
			custom_tooltip = rajnadhaga_human_under_command
		}
	}
	
	rajnadhaga_retake_sir = {
		required_missions = { rajnadhaga_avenge_brethern }
		icon = mission_conquer_50_development
		position = 9
		
		provinces_to_highlight = {
			province_id = 4633
			OR = {
				NOT = { owned_by = ROOT }
				NOT = { is_core = ROOT }
			}
		}
		
		trigger = {
			owns_core_province = 4633
		}
		
		effect = {
			south_ghankedhen_area = {
				add_claim = ROOT
			}
			north_ghankedhen_area = {
				add_claim = ROOT
			}
			babhagama_area = {
				add_claim = ROOT
			}
			dhujat_region = {
				add_claim = ROOT
			}
		}
	}
	
	rajnadhaga_elephant_lords = {
		required_missions = { rajnadhaga_retake_sir }
		icon = mission_indian_soldier_elephant
		position = 10
		
		provinces_to_highlight = {
			OR = {
				AND = {
					OR = {
						province_id = 4485
						province_id = 4409
					}
					OR = {
						NOT = { owned_by = ROOT }
						NOT = { is_core = ROOT }
					}
				}
				AND = {
					region = dhujat_region
					NOT = { owned_by = ROOT }
					NOT = { ROOT = { num_of_owned_provinces_with = { value = 10 region = dhujat_region } } }
				}
			}
		}
		
		trigger = {
			owns_core_province = 4485
			owns_core_province = 4409
			num_of_owned_provinces_with = {
				value = 10
				region = dhujat_region
			}
		}
		
		effect = {
			dhujat_region = {
				limit = {
					NOT = { is_core = ROOT }
					NOT = { owned_by = ROOT }
				}
				add_permanent_claim = ROOT
			}
		}
	}
	
	rajnadhaga_strike_south = {
		icon = mission_magadna_and_varanasi
		required_missions = { rajnadhaga_elephant_lords }
		position = 11
		
		provinces_to_highlight = {
			OR = {
				AND = {
					OR = {
						province_id = 4435
						province_id = 4426
					}
					OR = {
						NOT = { owned_by = ROOT }
						NOT = { is_core = ROOT }
					}
				}
				AND = {
					region = rakhadesh_region
					NOT = { owned_by = ROOT }
					NOT = { ROOT = { num_of_owned_provinces_with = { value = 15 region = rakhadesh_region } } }
				}
			}
		}
		
		trigger = {
			owns_core_province = 4435
			owns_core_province = 4426
			num_of_owned_provinces_with = {
				value = 15
				region = rakhadesh_region
			}
		}
		
		effect = {
			rakhadesh_region = {
				limit = {
					NOT = { is_core = ROOT }
					NOT = { owned_by = ROOT }
				}
				add_permanent_claim = ROOT
			}
			inner_rahen_area = {
				limit = {
					NOT = {
						owned_by = ROOT
						is_core = ROOT
					}
				}
				add_permanent_claim = ROOT
			}
		}
	}
	
	rajnadhaga_end_raj = {
		icon = mission_gharbianss
		required_missions = { rajnadhaga_strike_south }
		position = 12
		
		provinces_to_highlight = {
			area = inner_rahen_area
			OR = {
				NOT = { owned_by = ROOT }
				NOT = { is_core = ROOT }
			}
		}
		
		trigger = {
			inner_rahen_area = {
				type = all
				owned_by = ROOT
				is_core = ROOT
			}
		}
		
		effect = {
			add_country_modifier = {
				name = rajnadhaga_true_heir_of_rahen
				duration = 7300
			}
		}
	}
	
	rajnadhaga_question_caste = {
		icon = mission_rice_field
		position = 13
		required_missions = { rajnadhaga_end_raj rajnadhaga_end_menace }
		
		provinces_to_highlight = {
			superregion = rahen_superregion
			NOT = { country_or_non_sovereign_subject_holds = ROOT }
		}
		
		trigger = {
			stability = 3
			rahen_superregion = {
				type = all
				country_or_non_sovereign_subject_holds = ROOT
			}
		}
		effect = {
			add_country_modifier = {
				name = rajnadhaga_raheni_freedom
				duration = 9125
			}
			clr_country_flag = has_caste_estates
		}
	}
}

rajnadhaga_conquest_3 = {
	slot = 3
	generic = no
	ai = yes
	potential = {
		tag = R07
	}
	has_country_shield = yes
	
	rajnadhaga_league_of_shamakhad = {
		icon = mission_reliable_allies
		required_missions = { }
		position = 1
		
		trigger = {
			R11 = {
				alliance_with = ROOT
				marriage_with = ROOT
				exists = yes
			}
		}
		
		effect = {
			add_country_modifier = {
				name = rajnadhaga_head_ligue_shamakhad
				duration = 9125
			}
		}
	}
	
	rajnadhaga_protection_khadisrapur = {
		icon = mission_rajput_mansabdars
		required_missions = { rajnadhaga_league_of_shamakhad }
		position = 3
		
		provinces_to_highlight = {
			OR = {
				AND = {
					OR = {
						province_id = 4475
						province_id = 4467
					}
					NOT = { country_or_non_sovereign_subject_holds = ROOT }
					NOT = { ROOT = { owns_core_province = 4451 owns_core_province = 4452 } }
				}
				AND = {
					OR = {
						province_id = 4451
						province_id = 4452
					}
					OR = {
						NOT = { owned_by = ROOT }
						NOT = { is_core = ROOT }
					}
					NOT = { ROOT = { owns_or_non_sovereign_subject_of = 4475 owns_or_non_sovereign_subject_of = 4467 } }
				}
			}
		}
		
		trigger = {
			R11 = {
				alliance_with = ROOT
				marriage_with = ROOT
				exists = yes
				has_opinion = {
					who = ROOT
					value = 190
				}
			}
			army_strength = {
				who = R11
				value = 1.75
			}
			OR = {
				AND = {
					4475 = { country_or_non_sovereign_subject_holds = ROOT }
					4467 = { country_or_non_sovereign_subject_holds = ROOT }
				}
				AND = {
					owns_core_province = 4451
					owns_core_province = 4452
				}
			}
		}
		
		effect = {
			country_event =  { id = flavor_rajnadhaga.2 }
		}
	}
	
	rajnadhaga_library_sharaja = {
		icon = mission_warrior_gold
		required_missions = { rajnadhaga_delve_into_classics }
		position = 5
		
		provinces_to_highlight = {
			province_id = 4397
			OR = {
				NOT = { owned_by = ROOT }
				NOT = { is_core = ROOT }
			}
		}
		
		trigger = {
			owns_core_province = 4397
			4397 = { renaissance = 100 }
			adm_power = 100
			treasury = 1000
		}
		
		effect = {
			add_adm_power = -100
			add_treasury = -1000
			4397 = {
				add_permanent_province_modifier = {
					name = rajnadhaga_new_library_sharaja
					duration = -1
				}
			}
		}
	}
}

rajnadhaga_economy_1 = {
	slot = 4
	generic = no
	ai = yes
	potential = {
		tag = R07
	}
	has_country_shield = yes
	
	rajnadhaga_blessing_river = {
		icon = mission_tree_fishing
		required_missions = { }
		position = 1
		
		provinces_to_highlight = {
			owned_by = ROOT
			trade_goods = grain
			NOT = { has_production_building_trigger = yes }
		}
		
		trigger = {
			num_of_owned_provinces_with = {
				value = 5
				trade_goods = grain
				has_production_building_trigger = yes
			}
		}
		
		effect = {
			random_owned_province = {
				limit = {
					trade_goods = grain
					has_production_building_trigger = yes
				}
				add_base_production = 1
				add_base_manpower = 2
			}
			random_owned_province = {
				limit = {
					trade_goods = grain
					has_production_building_trigger = yes
				}
				add_base_tax = 1
				add_base_production = 2
				
			}
			random_owned_province = {
				limit = {
					trade_goods = grain
					has_production_building_trigger = yes
				}
				add_base_production = 1
				add_base_manpower = 2
			}
			random_owned_province = {
				limit = {
					trade_goods = grain
					has_production_building_trigger = yes
				}
				add_base_tax = 1
				add_base_production = 1
			}
		}
	}
	
	rajnadhaga_haven_peace = {
		icon = mission_new_army
		required_missions = { rajnadhaga_blessing_river }
		position = 2
		
		provinces_to_highlight = {
			owned_by = ROOT
			devastation = 1
		}
		
		trigger = {
			all_owned_province = {
				NOT = { devastation = 1 }
			}
		}
		
		effect = {
			add_country_modifier = {
				name = rajnadhaga_raheni_refugees
				duration = 9125
			}
		}
	}
	
	rajnadhaga_glass_artisans = {
		icon = mission_jawal_silver_mine
		required_missions = { rajnadhaga_haven_peace }
		position = 3
		
		provinces_to_highlight = {
			owned_by = ROOT
			trade_goods = glass
			OR = {
				AND = {
					NOT = { has_production_building_trigger = yes }
					NOT = { ROOT = { num_of_owned_provinces_with = { value = 3 trade_goods = glass has_production_building_trigger = yes } } }
				}
				AND = {
					NOT = { base_production = 10 }
					NOT = { ROOT = { any_owned_province = { trade_goods = glass base_production = 10 } } }
				}
			}
		}
		
		trigger = {
			num_of_owned_provinces_with = {
				value = 3
				trade_goods = glass
				has_production_building_trigger = yes
			}
			any_owned_province = {
				trade_goods = glass
				base_production = 10
			}
		}
		
		effect = {
			random_owned_province = {
				limit = {
					trade_goods = glass
					has_production_building_trigger = yes
				}
				add_base_production = 2
			}
			random_owned_province = {
				limit = {
					trade_goods = glass
					has_production_building_trigger = yes
				}
				add_base_production = 1
			}
		}
	}
}

rajnadhaga_libraries = {
	slot = 4
	generic = no
	ai = yes
	potential = {
		tag = R07
	}
	has_country_shield = yes
	
	rajnadhaga_delve_into_classics = {
		icon = mission_indian_stateman
		required_missions = { }
		position = 4
		
		trigger = {
			if = {
				limit = { has_estate = estate_church }
				estate_influence = {
					estate = estate_church
					influence = 50
				}
				estate_loyalty = {
					estate = estate_church
					loyalty = 60
				}
			}
			else_if = {
				limit = { has_estate = estate_lowercastes }
				estate_influence = {
					estate = estate_lowercastes
					influence = 50
				}
				estate_loyalty = {
					estate = estate_lowercastes
					loyalty = 60
				}
			}
		}
		
		effect = {
			add_country_modifier = {
				name = rajnadhaga_attracted_advisors
				duration = 5475
			}
		}
	}
	
	rajnadhaga_press_sarnihanpur = {
		icon = mission_conquer_nagaur
		required_missions = { rajnadhaga_delve_into_classics }
		position = 5
		
		provinces_to_highlight = {
			province_id = 4460
			OR = {
				NOT = { owned_by = ROOT }
				NOT = { is_core = ROOT }
			}
		}
		
		trigger = {
			owns_core_province = 4460
			4460 = { printing_press = 100 }
			has_institution = printing_press
			adm_power = 100
			dip_power = 100
		}
		
		effect = {
			add_adm_power = -100
			add_dip_power = -100
			4460 = {
				add_permanent_province_modifier = {
					name = rajnadhaga_press_sarnihanpur_modifier
					duration = -1
				}
			}
		}
	}
	
	rajnadhaga_military_college = {
		icon = mission_have_two_subjects
		required_missions = { rajnadhaga_press_sarnihanpur }
		position = 6
		
		provinces_to_highlight = {
			province_id = 4630
			OR = {
				NOT = { owned_by = ROOT }
				NOT = { is_core = ROOT }
			}
		}
		
		trigger = {
			owns_core_province = 4630
			has_institution = printing_press
			adm_power = 100
			mil_power = 100
		}
		
		effect = {
			add_adm_power = -100
			add_mil_power = -100
			4630 = {
				add_permanent_province_modifier = {
					name = rajnadhaga_military_college_modifier
					duration = -1
				}
			}
		}
	}
	
	rajnadhaga_new_philosophy = {
		icon = mission_monarch_in_throne_room
		required_missions = { rajnadhaga_military_college rajnadhaga_library_sir }
		position = 7
		
		trigger = {
			philosopher = 3
			has_dip_advisor_3 = yes
			has_mil_advisor_3 = yes
			adm_power = 200
			dip_power = 200
			mil_power = 200
		}
		
		effect = {
			add_adm_power = -200
			add_dip_power = -200
			add_mil_power = -200
			country_event = { id = flavor_rajnadhaga.11 }
		}
	}
}

rajnadaghi_university_2 = {
	slot = 5
	generic = no
	ai = yes
	potential = {
		tag = R07
	}
	
	rajnadhaga_library_sarnavan = {
		icon = mission_ahmadabad_paper
		required_missions = { rajnadhaga_delve_into_classics }
		position = 5
		
		provinces_to_highlight = {
			province_id = 4510
			OR = {
				NOT = { owned_by = ROOT }
				NOT = { is_core = ROOT }
				NOT = { development = 30 }
			}
		}
		
		trigger = {
			owns_core_province = 4510
			4510 = { development = 30 }
			has_institution = printing_press
			adm_power = 100
			mil_power = 100
		}
		
		effect = {
			add_adm_power = -100
			add_mil_power = -100
			4510 = {
				add_permanent_province_modifier = {
					name = rajnadhaga_library_sarnavan_modifier
					duration = -1
				}
			}
		}
	}
	
	rajnadhaga_library_sir = {
		icon = mission_brahmin_administrators
		required_missions = { rajnadhaga_library_sarnavan }
		position = 6
			
		provinces_to_highlight = {
			province_id = 4633
			OR = {
				NOT = { owned_by = ROOT }
				NOT = { is_core = ROOT }
				NOT = { development = 30 }
			}
		}
		
		trigger = {
			owns_core_province = 4633
			4633 = { development = 30 }
			has_institution = printing_press
			adm_power = 100
			dip_power = 100
		}
		
		effect = {
			add_adm_power = -100
			add_dip_power = -100
			4633 = {
				add_permanent_province_modifier = {
					name = rajnadhaga_library_sir_modifier
					duration = -1
				}
			}
		}
	}
}

rajnadhaga_economy_2 = {
	slot = 5
	generic = no
	ai = yes
	potential = {
		tag = R07
	}
	
	rajnadhaga_resettling_valley = {
		icon = mission_unite_hindustan
		required_missions = { }
		position = 8
		
		provinces_to_highlight = {
			OR = {
				area = raghajandi_area
				area = nadida_area
				area = ghilapur_area
				area = khasardul_area
				area = pharata_area
			}
			OR = {
				NOT = { owned_by = ROOT }
				NOT = { is_core = ROOT }
			}
		}
		
		trigger = {
			raghajandi_area = {
				type = all
				owned_by = ROOT
				is_core = ROOT
			}
			nadida_area = {
				type = all
				owned_by = ROOT
				is_core = ROOT
			}
			ghilapur_area = {
				type = all
				owned_by = ROOT
				is_core = ROOT
			}
			khasardul_area = {
				type = all
				owned_by = ROOT
				is_core = ROOT
			}
			pharata_area = {
				type = all
				owned_by = ROOT
				is_core = ROOT
			}
		}
		
		effect = {
			nadida_area = {
				limit = { owned_by = ROOT }
				add_base_manpower = 1
				add_base_production = 1
				add_base_tax = 1
				add_province_modifier = {
					name = rajnadhaga_clash_in_the_valley
					duration = 9125
				}
			}
			ghilapur_area = {
				limit = { owned_by = ROOT }
				add_base_manpower = 1
				add_base_production = 1
				add_base_tax = 1
				add_province_modifier = {
					name = rajnadhaga_clash_in_the_valley
					duration = 9125
				}
			}
			khasardul_area = {
				limit = { owned_by = ROOT }
				add_base_manpower = 1
				add_base_production = 1
				add_base_tax = 1
				add_province_modifier = {
					name = rajnadhaga_clash_in_the_valley
					duration = 9125
				}
			}
			pharata_area = {
				limit = { owned_by = ROOT }
				add_base_manpower = 1
				add_base_production = 1
				add_base_tax = 1
				add_province_modifier = {
					name = rajnadhaga_clash_in_the_valley
					duration = 9125
				}
			}
			raghajandi_area = {
				limit = { owned_by = ROOT }
				add_base_manpower = 1
				add_base_production = 1
				add_base_tax = 1
				add_province_modifier = {
					name = rajnadhaga_clash_in_the_valley
					duration = 9125
				}
			}
		}
	}
	
	rajnadhaga_empower_merchant_class = {
		icon = mission_dominate_trade_in_bengal
		required_missions = { rajnadhaga_resettling_valley }
		position = 9
		
		trigger = {
			if = {
				limit = { has_estate = estate_burghers }
				estate_influence = {
					estate = estate_burghers
					influence = 60
				}
				estate_loyalty = {
					estate = estate_burghers
					loyalty = 60
				}
			}
			else_if = {
				limit = { has_estate = estate_middlecastes }
				estate_influence = {
					estate = estate_middlecastes
					influence = 60
				}
				estate_loyalty = {
					estate = estate_middlecastes
					loyalty = 60
				}
			}
		}
		
		effect = {
			add_country_modifier = {
				name = "proto_industrialization"
				duration = 9125
			}
			add_years_of_income = 0.5
		}
	}
	
	rajnadhaga_new_age = {
		icon = mission_industrialize_bengal
		required_missions = { rajnadhaga_empower_merchant_class }
		position = 10
		
		provinces_to_highlight = {
			province_id = 4630
			has_manufactory_trigger = yes
		}
		
		trigger = {
			num_of_owned_provinces_with = {
				value = 20
				OR = {
					has_building = mills
					has_building = farm_estate
					has_building = tradecompany
					has_building = plantations
					has_building = textile
					has_building = weapons
					has_building = wharf
					has_building = furnace
				}
			}
			4630 = {
				has_manufactory_trigger = yes
			}
		}
		
		effect = {
			4630 = {
				add_permanent_province_modifier = {
					name = rajnadhaga_sarilavhan_foundry
					duration = -1
				}
			}
			random_owned_province = {
				limit = { has_manufactory_trigger = yes }
				add_base_production = 1
				add_base_tax = 1
				add_base_manpower = 1
			}
		}
	}
}

rajnadaghi_reconquest_2 = {
	slot = 3
	generic = no
	ai = yes
	potential = {
		tag = R07
	}
	has_country_shield = yes
	
	rajnadhaga_finishing_reconquest = {
		icon = mission_defeat_mewar
		required_missions = { rajnadhaga_retake_sir }
		position = 10
		
		provinces_to_highlight = {
			region = shamakhad_region
			culture_group = upper_raheni
			NOT = { country_or_non_sovereign_subject_holds = ROOT }
		}
		
		trigger = {
			NOT = {
				shamakhad_region = {
					culture_group = upper_raheni
					NOT = { country_or_non_sovereign_subject_holds = ROOT }
				}
			}
		}
		
		effect = {
			shamakhad_region = {
				add_permanent_claim = ROOT
			}
		}
	}
	
	rajnadhaga_end_menace = {
		icon = mission_gunpowder_warfare
		required_missions = { rajnadhaga_finishing_reconquest }
		position = 12
		
		provinces_to_highlight = {
			region = shamakhad_region
			NOT = { country_or_non_sovereign_subject_holds = ROOT }
		}
		
		trigger = {
			shamakhad_region = {
				type = all
				country_or_non_sovereign_subject_holds = ROOT
			}
		}
		
		effect = {
			large_decrease_of_hobgoblin_tolerance_effect = yes
			every_owned_province = {
				limit = {
					culture_group = hobgoblin
					region = shamakhad_region
				}
				add_province_modifier = {
					name = rajnadhaga_persecution_hobgoblin
					duration = 7300
				}
			}
		}
	}
	
	rajnadhaga_never_again = {
		icon = mission_fortify_rajputana
		required_missions = { rajnadhaga_end_menace }
		position = 13
		
		provinces_to_highlight = {
			OR = {
				province_id = 4533
				province_id = 4538
				province_id = 4539
				province_id = 4541
			}
			OR = {
				NOT = { owned_by = ROOT }
				NOT = { fort_level = 4 }
			}
		}
		
		trigger = {
			4533 = {
				fort_level = 4
				owned_by = ROOT
			}
			4538 = {
				fort_level = 4
				owned_by = ROOT
			}
			4539 = {
				fort_level = 4
				owned_by = ROOT
			}
			4541 = {
				fort_level = 4
				owned_by = ROOT
			}
		}
		
		effect = {
			4533 = {
				add_permanent_province_modifier = {
					name = rajnadhaga_northern_fortress
					duration = -1
				}
			}
			4538 = {
				add_permanent_province_modifier = {
					name = rajnadhaga_northern_fortress
					duration = -1
				}
			}
			4539 = {
				add_permanent_province_modifier = {
					name = rajnadhaga_northern_fortress
					duration = -1
				}
			}
			4541 = {
				add_permanent_province_modifier = {
					name = rajnadhaga_northern_fortress
					duration = -1
				}
			}
		}
	}
}
